<?xml version="1.0" encoding="utf-8"?>
<!-- Generator: Adobe Illustrator 16.0.0, SVG Export Plug-In . SVG Version: 6.00 Build 0)  -->
<!DOCTYPE svg PUBLIC "-//W3C//DTD SVG 1.1//EN" "http://www.w3.org/Graphics/SVG/1.1/DTD/svg11.dtd">
<svg version="1.1" id="environmental_x5F_icons_x5F_by_x5F_iconshock"
	 xmlns="http://www.w3.org/2000/svg" xmlns:xlink="http://www.w3.org/1999/xlink" x="0px" y="0px" width="300px" height="300px"
	 viewBox="0 0 300 300" enable-background="new 0 0 300 300" xml:space="preserve">
<g id="hazardous_x5F_materials">
	<path fill="#EF6565" d="M222.798,211.924c0,0,0,17-3,17h-15c-3,0-3-17-3-17H222.798z"/>
	<path fill="#F27C7C" d="M222.798,206.924v5h-21v-5c0,0,0-4,4-4h13C218.798,202.924,222.798,202.924,222.798,206.924"/>
	<path fill="#EF6565" d="M205.798,202.924v5c0,0,0,2,2,2h9c0,0,2,0,2-2v-5H205.798z"/>
	<path fill="#4D5152" d="M218.794,203.924c0.506,0.006,3.004,0.18,3.004,3v4h-19v-3.994c0.006-0.502,0.177-3.006,3-3.006H218.794
		 M218.798,202.924h-13c-4,0-4,4-4,4v4v1h21v-5C222.798,202.924,218.798,202.924,218.798,202.924"/>
	<path fill="#4D5152" d="M217.798,203.924v4c0,0.805-0.55,0.987-1,1h-9c-0.805,0-0.988-0.551-1-1v-4H217.798 M218.798,202.924h-13v5
		c0,0,0,2,2,2h9c0,0,2,0,2-2V202.924z"/>
	<path fill="#4D5152" d="M221.798,211.924c0,7.826-0.957,15.25-2.056,16h-14.888c-1.117-0.756-2.056-8.035-2.057-16H221.798
		 M222.798,210.924h-21v1c0,0,0,17,3,17h15c3,0,3-17,3-17V210.924z"/>
	<polygon fill="#67DDE0" points="209.107,223.783 204.157,228.732 194.958,219.533 194.249,220.244 193.548,219.533 
		196.378,216.703 194.249,214.584 192.837,215.992 192.128,215.294 195.669,211.754 196.378,212.464 194.958,213.873 
		197.077,216.004 199.907,213.174 200.618,213.873 199.907,214.584 	"/>
	<polygon fill="#AAAAAA" points="214.048,232.973 213.348,233.674 209.808,230.143 209.098,230.844 207.688,229.434 
		204.858,229.434 204.157,228.732 209.107,223.785 209.808,224.482 209.808,227.313 211.218,228.723 210.518,229.434 	"/>
	<path fill="#4D5152" d="M195.665,211.756l-3.534,3.535l0.707,0.707l1.413-1.414l2.121,2.121l-2.828,2.83l0.707,0.706l0.707-0.708
		l9.9,9.9h2.828l1.414,1.414l0.707-0.707l3.535,3.535l0.707-0.707l-3.535-3.535l0.707-0.707l-1.414-1.414v-2.83l-9.898-9.898
		l0.707-0.707l-0.707-0.707l-2.83,2.83l-2.121-2.123l1.414-1.414L195.665,211.756z M208.811,225.482v2.248l0.998,0.996l-0.707,0.707
		l-0.998-0.996h-2.248L208.811,225.482z M199.2,215.293l2.121,2.121l-1.414,1.414l0.707,0.707l1.414-1.414l1.416,1.414l-1.414,1.414
		l0.707,0.707l1.414-1.414l1.413,1.414l-1.413,1.414l0.706,0.707l1.414-1.414l2.122,2.121l-3.535,3.535l-9.193-9.191L199.2,215.293z
		"/>
</g>
<g id="metal_x5F_recycling">
	<path fill="#FFD878" d="M165.142,212.3c0,0,0,17-3,17h-15c-3,0-3-17-3-17H165.142z"/>
	<path fill="#FFE4A9" d="M165.142,207.3v5h-21v-5c0,0,0-4,4-4h13C161.142,203.3,165.142,203.3,165.142,207.3"/>
	<path fill="#FFD878" d="M148.142,203.3v5c0,0,0,2,2,2h9c0,0,2,0,2-2v-5H148.142z"/>
	<path fill="#4D5152" d="M161.138,204.3c0.506,0.006,3.004,0.18,3.004,3v4h-19v-3.994c0.006-0.502,0.177-3.006,3-3.006H161.138
		 M161.142,203.3h-13c-4,0-4,4-4,4v4v1h21v-5C165.142,203.3,161.142,203.3,161.142,203.3"/>
	<path fill="#4D5152" d="M160.142,204.3v4c0,0.805-0.55,0.987-1,1h-9c-0.805,0-0.988-0.551-1-1v-4H160.142 M161.142,203.3h-13v5
		c0,0,0,2,2,2h9c0,0,2,0,2-2V203.3z"/>
	<path fill="#4D5152" d="M164.142,212.3c0,7.826-0.957,15.25-2.056,16h-14.888c-1.117-0.756-2.056-8.035-2.057-16H164.142
		 M165.142,211.3h-21v1c0,0,0,17,3,17h15c3,0,3-17,3-17V211.3z"/>
	<rect x="135.142" y="214.3" fill="#AAAAAA" width="16" height="19"/>
	<rect x="135.142" y="214.3" fill="#BFBFBF" width="16" height="4"/>
	<rect x="135.142" y="229.3" fill="#BFBFBF" width="16" height="4"/>
	<rect x="136.142" y="217.3" fill="#4D5152" width="14" height="1"/>
	<rect x="136.142" y="229.3" fill="#4D5152" width="14" height="1"/>
	<rect x="136.142" y="220.3" fill="#4D5152" width="5" height="1"/>
	<rect x="136.142" y="223.3" fill="#4D5152" width="3" height="1"/>
	<rect x="136.142" y="226.3" fill="#4D5152" width="6" height="1"/>
	<path fill="#4D5152" d="M150.142,232.3h-14v-17h14V232.3z M151.142,214.3h-16v19h16V214.3z"/>
</g>
<g id="organic_x5F_waste">
	<g>
		<g>
			<path fill="#AAAAAA" d="M51,212.8c0,0,0,17-3,17H33c-3,0-3-17-3-17H51z"/>
			<path fill="#BFBFBF" d="M51,207.8v5H30v-5c0,0,0-4,4-4h13C47,203.8,51,203.8,51,207.8"/>
			<path fill="#AAAAAA" d="M34,203.8v5c0,0,0,2,2,2h9c0,0,2,0,2-2v-5H34z"/>
			<path fill="#4D5152" d="M46.996,204.8c0.506,0.006,3.004,0.18,3.004,3v4H31v-3.994c0.006-0.502,0.177-3.006,3-3.006H46.996
				 M47,203.8H34c-4,0-4,4-4,4v4v1h21v-5C51,203.8,47,203.8,47,203.8"/>
			<path fill="#4D5152" d="M46,204.8v4c0,0.805-0.55,0.987-1,1h-9c-0.805,0-0.988-0.551-1-1v-4H46 M47,203.8H34v5c0,0,0,2,2,2h9
				c0,0,2,0,2-2V203.8z"/>
			<path fill="#4D5152" d="M50,212.8c0,7.826-0.957,15.25-2.056,16H33.057c-1.117-0.756-2.056-8.035-2.057-16H50 M51,211.8H30v1
				c0,0,0,17,3,17h15c3,0,3-17,3-17V211.8z"/>
			<path fill="#E88C77" d="M33.5,232.3c-1.625,0-2.523-0.395-3-0.744c-0.477,0.35-1.375,0.744-3,0.744
				c-1.326,0-2.661-0.848-3.859-2.451l-0.91-1.215l1.453,0.438c0.506,0.15,0.947,0.229,1.316,0.229c0.936,0,1.488-0.43,2.073-0.885
				c0.72-0.551,1.46-1.115,2.927-1.115c1.279,0,2.063,0.572,2.754,1.076c0.663,0.473,1.294,0.924,2.246,0.924
				c0.369,0,0.811-0.078,1.316-0.229l1.453-0.438l-0.909,1.215C36.161,231.452,34.826,232.3,33.5,232.3"/>
			<path fill="#E88C77" d="M30.5,221.3c-1.627,0-2.676-0.898-3.602-1.691c-0.791-0.691-1.498-1.309-2.398-1.309
				c-0.191,0-0.395,0.022-0.617,0.068c-0.968,0.18-1.873,0.742-2.464,1.182l-0.964,0.72l0.17-1.192
				c0.441-3.081,2.173-4.777,4.875-4.777c2.693,0,4.287,1.607,5,2.572c0.713-0.965,2.307-2.572,5-2.572
				c2.701,0,4.433,1.696,4.875,4.777l0.171,1.192l-0.965-0.72c-0.591-0.439-1.495-1.002-2.452-1.179
				c-0.234-0.049-0.438-0.071-0.629-0.071c-0.9,0-1.607,0.617-2.355,1.271C33.176,220.401,32.127,221.3,30.5,221.3"/>
			<path fill="#FFE3A6" d="M25.52,229.3c-0.183,0-0.352-0.102-0.438-0.262c-0.089-0.164-0.08-0.363,0.022-0.516
				c0.638-0.951,1.396-2.541,1.396-4.723c0-2.105-1.061-3.655-1.951-4.584c-0.154-0.162-0.183-0.408-0.068-0.602
				c0.092-0.154,0.256-0.245,0.43-0.245c0.044,0,0.088,0.007,0.131,0.019c0.639,0.173,1.184,0.619,1.829,1.186
				c0.928,0.811,1.979,1.727,3.63,1.727s2.702-0.916,3.629-1.726c0.613-0.537,1.171-0.996,1.821-1.185
				c0.046-0.014,0.093-0.021,0.14-0.021c0.172,0,0.335,0.089,0.428,0.241c0.117,0.193,0.09,0.441-0.066,0.605
				c-0.891,0.929-1.951,2.479-1.951,4.584c0,2.182,0.759,3.771,1.395,4.723c0.104,0.152,0.113,0.352,0.024,0.516
				c-0.087,0.16-0.256,0.262-0.438,0.262h-0.006c-0.957-0.012-1.603-0.48-2.229-0.936c-0.744-0.529-1.497-1.064-2.746-1.064
				c-1.458,0-2.23,0.586-2.91,1.104c-0.558,0.439-1.123,0.883-2.063,0.896H25.52z"/>
			<path fill="#4D5152" d="M35.5,213.8c-2.11,0-3.59,0.91-4.541,1.81c-0.209-2.33-1.52-5.81-5.459-5.81c-0.28,0-0.5,0.22-0.5,0.5
				c0,0.279,0.22,0.5,0.5,0.5c3.449,0,4.25,3.18,4.439,4.709c-0.949-0.859-2.41-1.709-4.439-1.709c-3.4,0-5.381,2.41-5.49,6.649
				c-0.01,0.13-0.01,0.25-0.01,0.38c0,0.16,0,0.33,0.02,0.51c0.23-0.209,0.58-0.521,0.99-0.85c0.73-0.59,1.66-1.22,2.54-1.52
				c0.729,0.599,2.45,2.3,2.45,4.83c0,2.471-1.07,4.16-1.58,4.83c-0.43-0.121-0.87-0.291-1.29-0.48
				c-0.58-0.26-1.12-0.549-1.53-0.791c0.23,0.531,0.49,1.051,0.78,1.541c1.3,2.221,3.069,3.9,5.12,3.9c1.459,0,2.4-0.301,3-0.65
				c0.6,0.35,1.539,0.65,3,0.65c2.05,0,3.82-1.68,5.12-3.9c0.29-0.49,0.55-1.01,0.78-1.541c-0.44,0.262-0.971,0.541-1.53,0.781
				c-0.43,0.189-0.87,0.369-1.29,0.49c-0.51-0.67-1.58-2.359-1.58-4.83c0-2.53,1.74-4.24,2.46-4.83c0.9,0.289,1.83,0.939,2.53,1.51
				c0.459,0.37,0.81,0.699,0.99,0.87c0.01-0.171,0.02-0.341,0.02-0.5v-0.021C41,216.359,39,213.8,35.5,213.8 M36.959,229.55
				c-1.01,1.35-2.199,2.25-3.459,2.25c-2.16,0-2.85-0.73-3-0.93c-0.15,0.199-0.84,0.93-3,0.93c-1.26,0-2.45-0.9-3.461-2.25
				c0.5,0.15,1,0.25,1.461,0.25c1.09,0,1.75-0.5,2.38-0.99c0.68-0.52,1.319-1.01,2.62-1.01c1.1,0,1.76,0.471,2.459,0.98
				c0.701,0.5,1.431,1.02,2.541,1.02C35.959,229.8,36.459,229.7,36.959,229.55 M34,223.8c0,2.359,0.85,4.059,1.479,5
				c-0.78-0.01-1.319-0.391-1.94-0.84c-0.76-0.541-1.619-1.16-3.039-1.16c-1.641,0-2.521,0.68-3.23,1.221
				c-0.561,0.439-1.01,0.77-1.75,0.779c0.631-0.941,1.48-2.641,1.48-5c0-2.279-1.16-3.961-2.09-4.93
				c0.549,0.149,1.06,0.579,1.629,1.079c0.94,0.82,2.121,1.851,3.961,1.851s3.02-1.03,3.959-1.851c0.57-0.5,1.08-0.92,1.631-1.079
				C35.16,219.839,34,221.521,34,223.8 M37.22,217.88c-0.239-0.051-0.479-0.08-0.72-0.08c-1.09,0-1.9,0.709-2.69,1.399
				c-0.909,0.78-1.851,1.601-3.31,1.601c-1.461,0-2.4-0.82-3.311-1.601c-0.789-0.69-1.6-1.399-2.689-1.399
				c-0.24,0-0.48,0.029-0.721,0.08c-1.029,0.189-1.99,0.77-2.66,1.27c0.34-2.37,1.541-4.35,4.381-4.35c3.5,0,5,3,5,3s1.5-3,5-3
				c2.84,0,4.04,1.979,4.38,4.35C39.21,218.649,38.25,218.069,37.22,217.88"/>
		</g>
	</g>
</g>
<g id="paper_x5F_recycling">
	<path fill="#67DDE0" d="M107.821,212.3c0,0,0,17-3,17h-15c-3,0-3-17-3-17H107.821z"/>
	<path fill="#ACF0F2" d="M107.821,207.3v5h-21v-5c0,0,0-4,4-4h13C103.821,203.3,107.821,203.3,107.821,207.3"/>
	<path fill="#67DDE0" d="M90.821,203.3v5c0,0,0,2,2,2h9c0,0,2,0,2-2v-5H90.821z"/>
	<path fill="#4D5152" d="M103.817,204.3c0.506,0.006,3.004,0.18,3.004,3v4h-19v-3.994c0.006-0.502,0.177-3.006,3-3.006H103.817
		 M103.821,203.3h-13c-4,0-4,4-4,4v4v1h21v-5C107.821,203.3,103.821,203.3,103.821,203.3"/>
	<path fill="#4D5152" d="M102.821,204.3v4c0,0.805-0.55,0.987-1,1h-9c-0.805,0-0.988-0.551-1-1v-4H102.821 M103.821,203.3h-13v5
		c0,0,0,2,2,2h9c0,0,2,0,2-2V203.3z"/>
	<path fill="#4D5152" d="M106.821,212.3c0,7.826-0.957,15.25-2.056,16H89.878c-1.117-0.756-2.056-8.035-2.057-16H106.821
		 M107.821,211.3h-21v1c0,0,0,17,3,17h15c3,0,3-17,3-17V211.3z"/>
	<path fill="#FFFFFF" d="M94.821,215.3v17c0,1-1,1-1,1h-15c-1,0-1-1-1-1v-21c0,0,0-1,1-1h11L94.821,215.3z"/>
	<path fill="#4D5152" d="M89.821,210.3h-11c-1,0-1,1-1,1v21c0,0,0,1,1,1h15c0,0,1,0,1-1v-17L89.821,210.3z M93.821,232.3h-15v-1h15
		V232.3z M93.821,230.3h-15v-1h15V230.3z M93.821,228.3h-15v-17h9v4c0,0,0,2,2,2h4V228.3z M93.821,216.3h-4c-0.811,0-0.99-0.551-1-1
		v-4h0.59l4.41,4.41V216.3z"/>
</g>
<g id="recycle">
	<path fill="#75EA9C" d="M276.23,207.359l-3.7,5.52c-0.1,0.141-0.25,0.221-0.42,0.221h-6.999c-0.279,0-0.5-0.221-0.5-0.5
		c0-0.281,0.221-0.5,0.5-0.5h2.149l-2.69-4.841l-4.029,6.601c-0.08,0.119-0.199,0.209-0.34,0.229
		c-0.029,0.011-0.061,0.011-0.09,0.011c-0.109,0-0.221-0.041-0.311-0.111l-5-4c-0.209-0.159-0.25-0.449-0.109-0.67l4-6
		c0.1-0.14,0.25-0.219,0.42-0.219h10.999c0.18,0,0.34,0.1,0.43,0.25l3.301,5.77l1.56-2.32c0.15-0.23,0.46-0.29,0.69-0.141
		C276.32,206.818,276.38,207.129,276.23,207.359"/>
	<path fill="#75EA9C" d="M264.318,223.672l-0.793,6.355c-0.035,0.24-0.238,0.426-0.479,0.432h-0.039l-7.201-0.268
		c-0.17-0.008-0.322-0.105-0.406-0.24l-2.092-3.418c-0.01,0.002-0.01-0.018-0.01-0.018l-3.648-5.948
		c-0.094-0.147-0.098-0.336-0.012-0.5l3.178-5.785l-2.785-0.157c-0.27-0.013-0.486-0.246-0.463-0.517
		c0.012-0.281,0.256-0.487,0.518-0.474l6.852,0.369c0.17,0.016,0.322,0.102,0.406,0.248l3.447,5.86
		c0.145,0.237,0.063,0.55-0.174,0.685c-0.078,0.045-0.158,0.065-0.248,0.067c-0.17,0.005-0.342-0.08-0.436-0.237l-1.1-1.873
		l-2.752,4.875l7.74-0.023c0.15,0.006,0.283,0.063,0.375,0.17C264.299,223.385,264.346,223.531,264.318,223.672"/>
	<path fill="#75EA9C" d="M279.934,220.363l-1.944,3.473l-3.418,6.129c-0.086,0.15-0.258,0.254-0.43,0.256l-6.654,0.064l1.27,2.492
		c0.125,0.244,0.03,0.547-0.214,0.67c-0.085,0.041-0.187,0.061-0.276,0.051c-0.17-0.02-0.318-0.113-0.393-0.273l-3.022-5.92
		c-0.074-0.146-0.063-0.328,0.01-0.471l1.943-3.471l0.003-0.02l1.47-2.619c0.135-0.246,0.438-0.336,0.685-0.197
		c0.238,0.137,0.325,0.439,0.188,0.686l-1.048,1.879l5.541,0.002l-3.799-6.734c-0.066-0.13-0.082-0.271-0.036-0.406
		c0.044-0.137,0.146-0.248,0.283-0.303l5.923-2.418c0.243-0.094,0.522,0.006,0.639,0.24l3.291,6.418
		C280.019,220.043,280.021,220.213,279.934,220.363"/>
	<path fill="#4D5152" d="M276.091,206.659c-0.229-0.149-0.54-0.09-0.69,0.14l-1.56,2.32l-3.301-5.77
		c-0.09-0.15-0.25-0.25-0.429-0.25h-11c-0.17,0-0.32,0.08-0.42,0.22l-4,6c-0.141,0.22-0.1,0.51,0.109,0.67l5,4
		c0.09,0.069,0.201,0.11,0.311,0.11c0.029,0,0.061,0,0.09-0.01c0.141-0.021,0.26-0.111,0.34-0.23l4.029-6.6l2.69,4.84h-2.149
		c-0.281,0-0.5,0.22-0.5,0.5c0,0.279,0.219,0.5,0.5,0.5h7c0.169,0,0.319-0.08,0.419-0.221l3.7-5.52
		C276.38,207.129,276.32,206.819,276.091,206.659 M259.982,212.85l-4.201-3.351l3.6-5.399h3.432l1.197,2.149L259.982,212.85z
		 M271.841,212.1h-3.431l-4.449-8h5.859l3.291,5.76c0.029,0.06,0.079,0.109,0.139,0.15L271.841,212.1z"/>
	<path fill="#4D5152" d="M264.197,223.273c-0.092-0.104-0.225-0.162-0.375-0.168l-7.742,0.023l2.754-4.875l1.098,1.873
		c0.096,0.158,0.268,0.243,0.438,0.238c0.09-0.002,0.17-0.024,0.248-0.068c0.236-0.134,0.32-0.447,0.172-0.684l-3.445-5.861
		c-0.084-0.146-0.234-0.232-0.404-0.249l-6.854-0.369c-0.262-0.012-0.506,0.194-0.518,0.474c-0.023,0.271,0.191,0.506,0.463,0.519
		l2.785,0.157l-3.18,5.783c-0.084,0.164-0.08,0.354,0.014,0.5l3.648,5.949c0,0,0,0.02,0.012,0.018l2.09,3.418
		c0.084,0.135,0.236,0.232,0.406,0.238l7.199,0.27l0.041,0.002c0.24-0.008,0.445-0.193,0.479-0.436l0.793-6.354
		C264.346,223.531,264.299,223.385,264.197,223.273 M250.654,220.291l3.188-5.816c0.029-0.041,0.047-0.092,0.047-0.131l2.725,0.149
		l1.635,2.778l-4.531,8.021L250.654,220.291z M262.59,229.439l-6.479-0.238l-1.797-2.934l1.201-2.141l7.744-0.018L262.59,229.439z"
		/>
	<path fill="#4D5152" d="M279.944,219.891l-3.291-6.418c-0.115-0.233-0.396-0.334-0.639-0.24l-5.923,2.418
		c-0.136,0.056-0.239,0.166-0.283,0.303c-0.046,0.135-0.03,0.277,0.036,0.406l3.799,6.734l-5.541-0.004l-0.551,0.996l9.141,0.021
		l0.855,0.004c0.191,0,0.354-0.113,0.441-0.275l1.944-3.472C280.021,220.212,280.019,220.042,279.944,219.891 M277.254,223.104
		l-2.465-0.004l-3.798-6.738l4.986-2.027l2.959,5.771L277.254,223.104z"/>
	<path fill="#4D5152" d="M277.989,223.836l-3.418,6.129c-0.086,0.15-0.258,0.254-0.43,0.256l-6.654,0.064l1.27,2.492
		c0.125,0.246,0.031,0.547-0.214,0.67c-0.085,0.041-0.187,0.061-0.276,0.051c-0.17-0.018-0.318-0.113-0.393-0.273l-3.022-5.918
		c-0.074-0.148-0.064-0.328,0.01-0.473l1.943-3.471l0.003-0.021l1.47-2.615c0.136-0.247,0.438-0.337,0.685-0.199
		c0.238,0.137,0.326,0.438,0.188,0.686l-1.048,1.877l-0.552,0.996l-1.681,3.008l1.137,2.236c0.063-0.023,0.125-0.037,0.195-0.041
		l6.635-0.068l2.855-5.113l0.855,0.004C277.739,224.111,277.901,223.996,277.989,223.836"/>
</g>
<g id="global_x5F_warming">
	<path fill="#FFD878" d="M133.5,263c0-8.285,6.716-15,15-15s15,6.715,15,15c0,8.283-6.716,15-15,15S133.5,271.283,133.5,263"/>
	<path fill="#67DDE0" d="M162.5,263c0-7.732-6.268-14-14-14s-14,6.268-14,14s6.268,14,14,14S162.5,270.732,162.5,263"/>
	<path fill="#75EA9C" d="M162,262.5c-0.025-0.024-0.051-0.049-0.077-0.072c-2.024-1.842-5.936-0.915-6.923,0.072
		c-1,1,1.235,3.479-2,5c-3.021,1.42-0.813,4.688-4,6c-2.066,0.852-4-2-3-5s-5.889-1.635-4-7c1.05-2.983,3.885-2.252,8-2
		c3.897,0.238,3-4,1-5s-7,3-8,1s4-6,4-6s6.812-0.476,10.753,3.434c3.941,3.908,4.222,9.542,4.222,9.542"/>
	<path fill="#4D5152" d="M148.5,250c7.168,0,13,5.832,13,13s-5.832,13-13,13s-13-5.832-13-13S141.332,250,148.5,250 M148.5,249
		c-7.732,0-14,6.268-14,14s6.268,14,14,14s14-6.268,14-14S156.232,249,148.5,249"/>
	<path fill="none" stroke="#4D5152" stroke-miterlimit="10" d="M147,249.5c0,0-5,4-4,6s6-2,8-1s2.897,5.238-1,5
		c-4.115-0.252-6.95-0.983-8,2c-1.889,5.365,5,4,4,7s0.934,5.852,3,5c3.187-1.313,0.979-4.58,4-6c3.235-1.521,1-4,2-5s5-1.938,7,0"
		/>
	<path fill="#FFD878" d="M140.5,279c-6,0-8-4-8-8s8-14,8-14l1,8l2-5c0,0,2,5,3,10S145.5,279,140.5,279"/>
	<path fill="#E88C77" d="M140.5,279c0,0-3,0-2-4c0.768-3.066,3-5,3-5s2,3,2,6S142.5,279,140.5,279"/>
	<path fill="#4D5152" d="M140.5,257l1,8l2-5c0,0,2,5,3,10s-1,9-6,9c-6,0-8-4-8-8S140.5,257,140.5,257 M141.199,254.525l-1.479,1.85
		c-0.842,1.051-8.22,10.396-8.22,14.625c0,5.635,3.365,9,9,9c2.379,0,4.314-0.828,5.597-2.391c1.526-1.863,2.019-4.635,1.384-7.807
		c-1.007-5.031-2.969-9.967-3.052-10.174l-0.929-2.321l-0.928,2.321l-0.562,1.399l-0.519-4.153L141.199,254.525z"/>
	<path fill="#4D5152" d="M141.5,270c0,0,2,3,2,6s-1,3-3,3c0,0-3,0-2-4C139.268,271.934,141.5,270,141.5,270 M141.703,268.502
		l-0.857,0.742c-0.101,0.086-2.481,2.178-3.315,5.514c-0.429,1.715-0.269,3.068,0.478,4.023c0.924,1.184,2.334,1.219,2.492,1.219
		c2.342,0,4-0.287,4-4c0-3.266-2.08-6.422-2.168-6.555L141.703,268.502z"/>
</g>
<g id="growing">
	<path fill="#75EA9C" d="M203,259.5c0,3-3.5,3-3.5,3s-3.5,0-3.5-3s3.5-7,3.5-7S203,256.5,203,259.5"/>
	<path fill="#75EA9C" d="M212,256.5c0,3-3.5,3-3.5,3s-3.5,0-3.5-3s3.5-7,3.5-7S212,253.5,212,256.5"/>
	<path fill="#75EA9C" d="M221,259.5c0,3-3.5,3-3.5,3s-3.5,0-3.5-3s3.5-7,3.5-7S221,256.5,221,259.5"/>
	<path fill="#FFE4A9" d="M218.3,275.389l-0.51,0.262c-3.19,1.59-5.71,2.85-8.79,2.85c-2.939,0-10.91-2.59-12.16-3H192v-9.001h4
		c0.38,0,0.59,0,1.29-0.71c1.079-1.07,2.28-1.6,3.68-1.6c1.16,0,2.261,0.359,3.32,0.711c0.96,0.309,1.87,0.599,2.71,0.599
		c2.39,0,6,0,6,2.501c0,2.5-1.99,2.5-5,2.5h-0.1c-0.5,0-1.09,0-1.471,0.039c0.43,1.191,1.01,1.381,2.891,2.01
		c0.3,0.102,0.64,0.152,1.01,0.152c1.32,0,2.86-0.643,4.21-1.211c1.26-0.531,2.35-0.99,3.31-0.99s1.841,0.781,2.091,1.84
		C220.16,273.309,219.85,274.619,218.3,275.389"/>
	<rect x="192" y="266.5" fill="#67DDE0" width="4" height="9"/>
	<path fill="#4D5152" d="M217.85,270.5c-0.27,0-0.56,0.039-0.85,0.1v0.4c0,0.141,0.06,0.18,0.14,0.18
		c0.101,0,0.221-0.039,0.36-0.039c0.28,0,0.5,0.139,0.5-0.141v-0.48C217.95,270.5,217.9,270.5,217.85,270.5"/>
	<path fill="#4D5152" d="M219.94,272.34c-0.24-1-1.04-1.76-1.94-1.82V271c0,0.279-0.22,0.141-0.5,0.141
		c-0.14,0-0.26,0.039-0.36,0.039c-0.08,0-0.14-0.039-0.14-0.18v-0.4c-0.74,0.17-1.56,0.51-2.46,0.891
		c-1.35,0.57-2.89,1.209-4.21,1.209c-0.37,0-0.71-0.049-1.01-0.15c-0.11-0.039-0.221-0.068-0.32-0.1v-1.959
		c2.44-0.02,4-0.281,4-2.49c0-1.86-2-2.34-4-2.461v-6.08c0.96-0.129,3-0.67,3-2.959c0-3-3.5-7-3.5-7s-3.5,4-3.5,7
		c0,2.289,2.04,2.83,3,2.959v6.051c-0.35-0.01-0.68-0.01-1-0.01c-0.84,0-1.75-0.291-2.71-0.601c-1.06-0.351-2.16-0.71-3.319-0.71
		c-0.341,0-0.66,0.03-0.971,0.09v-1.82c0.96-0.129,3-0.67,3-2.959c0-3-3.5-7-3.5-7s-3.5,4-3.5,7c0,2.289,2.04,2.83,3,2.959v2.131
		c-0.609,0.27-1.17,0.67-1.71,1.199c-0.7,0.711-0.91,0.711-1.29,0.711h-4v9h4.84c1.25,0.41,9.221,3,12.16,3
		c3.08,0,5.6-1.26,8.79-2.85l0.51-0.26C219.85,274.619,220.16,273.311,219.94,272.34 M206,256.5c0-1.681,1.439-3.98,2.5-5.4
		c1.06,1.42,2.5,3.72,2.5,5.4c0,1.449-1.24,1.85-2,1.959V256c0-0.28-0.22-0.5-0.5-0.5s-0.5,0.22-0.5,0.5v2.459
		C207.24,258.35,206,257.949,206,256.5 M197,259.5c0-1.681,1.439-3.98,2.5-5.4c1.061,1.42,2.5,3.72,2.5,5.4
		c0,1.449-1.24,1.85-2,1.959V259c0-0.28-0.221-0.5-0.5-0.5s-0.5,0.22-0.5,0.5v2.459C198.24,261.35,197,260.949,197,259.5 M195,274.5
		h-2v-7h2V274.5z M217.85,274.5c-3.39,1.689-5.85,3-8.85,3s-12-3-12-3h-1v-7c0.52,0,1,0,2-1c0.98-0.98,1.971-1.311,2.971-1.311
		c2,0,4.029,1.311,6.029,1.311s5,0,5,1.5s-1,1.5-4,1.5h-0.1c-1.93,0-2.86,0.01-2.5,1.119c0.6,1.881,1.57,2.201,3.6,2.881
		c0.43,0.141,0.88,0.199,1.33,0.199c2.729,0,5.8-2.199,7.52-2.199C218.85,271.5,219.85,273.5,217.85,274.5 M208,270.5v1.59
		c-0.88-0.359-1.26-0.699-1.57-1.551c0.381-0.039,0.971-0.039,1.471-0.039H208z"/>
	<path fill="#4D5152" d="M217.5,252.5c0,0-3.5,4-3.5,7c0,2.289,2.04,2.83,3,2.959V271c0,0.141,0.06,0.18,0.14,0.18
		c0.101,0,0.221-0.039,0.36-0.039c0.28,0,0.5,0.139,0.5-0.141v-8.541c0.96-0.129,3-0.67,3-2.959C221,256.5,217.5,252.5,217.5,252.5
		 M218,261.459V259c0-0.28-0.22-0.5-0.5-0.5s-0.5,0.22-0.5,0.5v2.459c-0.76-0.109-2-0.51-2-1.959c0-1.681,1.44-3.98,2.5-5.4
		c1.06,1.42,2.5,3.72,2.5,5.4C220,260.949,218.76,261.35,218,261.459"/>
</g>
<g id="leaf">
	<path fill="#75EA9C" d="M39,265.5c0,9-9.5,9-9.5,9s-9.5,0-9.5-9s9.5-16,9.5-16S39,256.5,39,265.5"/>
	<path fill="#4D5152" d="M30,278c0,0.275-0.225,0.5-0.5,0.5S29,278.275,29,278v-21c0-0.276,0.225-0.5,0.5-0.5s0.5,0.224,0.5,0.5V278
		z"/>
	<line fill="none" stroke="#4D5152" stroke-linecap="round" stroke-miterlimit="10" x1="29.5" y1="262" x2="32.5" y2="259"/>
	<line fill="none" stroke="#4D5152" stroke-linecap="round" stroke-miterlimit="10" x1="29.5" y1="268" x2="34.5" y2="263"/>
	<line fill="none" stroke="#4D5152" stroke-linecap="round" stroke-miterlimit="10" x1="29.5" y1="265" x2="26.5" y2="262"/>
	<line fill="none" stroke="#4D5152" stroke-linecap="round" stroke-miterlimit="10" x1="29.5" y1="271" x2="24.5" y2="266"/>
	<path fill="#4D5152" d="M29.5,250.777c2.021,1.674,8.5,7.598,8.5,14.723c0,7.875-8.154,7.998-8.498,8
		c-0.348-0.002-8.502-0.125-8.502-8C21,258.391,27.48,252.455,29.5,250.777 M29.5,249.5c0,0-9.5,7-9.5,16s9.5,9,9.5,9s9.5,0,9.5-9
		S29.5,249.5,29.5,249.5"/>
</g>
<g id="leafs">
	<path fill="#75EA9C" d="M100.594,267.461c0,0-5.303-0.352-7.424-2.474c-2.122-2.122,0.353-4.597,0.353-4.597
		s2.475-2.475,4.598-0.352C100.241,262.16,100.594,267.461,100.594,267.461"/>
	<path fill="#75EA9C" d="M82.916,258.27c0,0,0.353,5.303,2.474,7.424c2.123,2.123,4.598-0.354,4.598-0.354s2.475-2.474,0.353-4.596
		C88.22,258.623,82.916,258.27,82.916,258.27"/>
	<path fill="#75EA9C" d="M91.401,249.785c0,0,0.354,5.303,2.475,7.424s4.596-0.354,4.596-0.354s2.476-2.474,0.354-4.596
		C96.704,250.138,91.401,249.785,91.401,249.785"/>
	<path fill="#75EA9C" d="M92.108,275.947c0,0-5.303-0.354-7.424-2.475c-2.122-2.121,0.354-4.596,0.354-4.596
		s2.475-2.475,4.596-0.354S92.108,275.947,92.108,275.947"/>
	<path fill="#4D5152" d="M77.259,278.068c-0.194,0.195-0.512,0.195-0.707,0c-0.194-0.195-0.194-0.512,0-0.707l21.549-21.554
		c0.195-0.194,0.512-0.194,0.707,0l-0.188-0.302c0.195,0.195,0.048,1.154-0.147,1.35L77.259,278.068z"/>
	<path fill="#4D5152" d="M89.987,265.34c0.195-0.194,0.195-0.512,0-0.707l-2.122-2.121c-0.194-0.195-0.511-0.195-0.707,0
		c-0.194,0.195-0.194,0.512,0,0.707l2.122,2.121C89.476,265.535,89.792,265.536,89.987,265.34"/>
	<path fill="#4D5152" d="M87.866,271.705c0.194-0.195,0.194-0.512,0-0.707l-2.121-2.121c-0.195-0.195-0.512-0.195-0.707,0
		c-0.196,0.195-0.195,0.512,0,0.707l2.121,2.121C87.354,271.9,87.67,271.9,87.866,271.705"/>
	<path fill="#4D5152" d="M96.351,263.219c0.195-0.195,0.195-0.513,0-0.707l-2.121-2.121c-0.195-0.195-0.512-0.195-0.707,0
		s-0.195,0.513,0,0.707l2.121,2.121C95.839,263.414,96.155,263.414,96.351,263.219"/>
	<path fill="#4D5152" d="M95.644,254.027c0.195-0.195,0.512-0.195,0.707,0l2.122,2.121c0.195,0.194,0.195,0.512-0.001,0.707
		c-0.195,0.194-0.512,0.194-0.707,0l-2.121-2.121C95.448,254.539,95.448,254.222,95.644,254.027"/>
	<path fill="#4D5152" d="M96.189,260.178L96.189,260.178c0.441,0,0.842,0.187,1.224,0.567c1.188,1.188,1.797,3.836,2.05,5.587
		c-1.749-0.252-4.394-0.859-5.587-2.051c-1.33-1.332,0.064-2.889,0.351-3.182C94.487,260.844,95.351,260.178,96.189,260.178
		 M96.189,259.178c-1.455,0-2.667,1.213-2.667,1.213s-2.475,2.476-0.353,4.598c2.121,2.121,7.424,2.473,7.424,2.473
		s-0.353-5.302-2.474-7.423C97.482,259.401,96.813,259.178,96.189,259.178"/>
	<path fill="#4D5152" d="M84.047,259.4c1.75,0.252,4.397,0.861,5.586,2.051c1.33,1.33-0.063,2.887-0.353,3.182
		c-0.239,0.239-1.111,0.92-1.961,0.92c-0.441,0-0.84-0.185-1.223-0.566C84.909,263.797,84.3,261.15,84.047,259.4 M82.916,258.27
		c0,0,0.353,5.303,2.474,7.424c0.637,0.637,1.307,0.859,1.93,0.859c1.455,0,2.668-1.213,2.668-1.213s2.475-2.474,0.353-4.596
		C88.22,258.623,82.916,258.27,82.916,258.27"/>
	<path fill="#4D5152" d="M92.532,250.914c1.749,0.252,4.394,0.859,5.586,2.052c1.33,1.33-0.063,2.887-0.351,3.179
		c-0.263,0.258-1.124,0.924-1.964,0.924c-0.44,0-0.84-0.186-1.221-0.566C93.395,255.313,92.785,252.664,92.532,250.914
		 M91.401,249.785c0,0,0.354,5.303,2.475,7.424c0.637,0.636,1.305,0.859,1.928,0.859c1.455,0,2.668-1.214,2.668-1.214
		s2.476-2.474,0.354-4.596C96.704,250.138,91.401,249.785,91.401,249.785"/>
	<path fill="#4D5152" d="M87.706,268.664L87.706,268.664c0.44,0,0.84,0.186,1.222,0.566c1.188,1.188,1.797,3.836,2.05,5.586
		c-1.749-0.25-4.395-0.859-5.586-2.049c-1.331-1.332,0.064-2.889,0.354-3.184C85.983,269.346,86.855,268.664,87.706,268.664
		 M87.706,267.664c-1.455,0-2.668,1.213-2.668,1.213s-2.476,2.475-0.354,4.598c2.121,2.121,7.424,2.473,7.424,2.473
		s-0.354-5.303-2.474-7.424C88.997,267.887,88.329,267.664,87.706,267.664"/>
</g>
<g id="battery_x5F_charging">
	<path fill="#FFD878" d="M280,256.5v3c0,1.1-0.9,2-2,2v2c0,1.1-0.9,2-2,2h-3.51c-0.1-0.33-0.209-0.66-0.33-1
		c-1.75-4.881-5.641-10.301-5.85-10.59c-0.189-0.261-0.49-0.41-0.811-0.41s-0.619,0.149-0.811,0.41
		c-0.209,0.289-4.1,5.709-5.85,10.59c-0.119,0.34-0.23,0.67-0.33,1H255c-1.1,0-2-0.9-2-2v-2c-1.1,0-2-0.9-2-2v-3c0-1.101,0.9-2,2-2
		v-2c0-1.101,0.9-2,2-2h21c1.1,0,2,0.899,2,2v2C279.1,254.5,280,255.399,280,256.5"/>
	<path fill="#4D5152" d="M278,254.5v-2c0-1.101-0.9-2-2-2h-21c-1.1,0-2,0.899-2,2v2c-1.1,0-2,0.899-2,2v3c0,1.1,0.9,2,2,2v2
		c0,1.1,0.9,2,2,2h3.51c0.1-0.33,0.211-0.66,0.33-1H255c-0.549,0-1-0.451-1-1v-3h-1c-0.549,0-1-0.451-1-1v-3c0-0.551,0.451-1,1-1h1
		v-3c0-0.551,0.451-1,1-1h21c0.551,0,1,0.449,1,1v3h1c0.551,0,1,0.449,1,1v3c0,0.549-0.449,1-1,1h-1v3c0,0.549-0.449,1-1,1h-3.84
		c0.121,0.34,0.23,0.67,0.33,1H276c1.1,0,2-0.9,2-2v-2c1.1,0,2-0.9,2-2v-3C280,255.399,279.1,254.5,278,254.5"/>
	<path fill="#75EA9C" d="M272,268.5c0,4.15-4.469,5.539-6,5.9v2.6c0,0.279-0.221,0.5-0.5,0.5s-0.5-0.221-0.5-0.5v-2.6
		c-1.529-0.361-6-1.75-6-5.9c0-5,6.5-14,6.5-14S272,263.5,272,268.5"/>
	<path fill="#4D5152" d="M265.5,254.5c0,0-6.5,9-6.5,14c0,4.15,4.471,5.539,6,5.9v2.6c0,0.279,0.221,0.5,0.5,0.5s0.5-0.221,0.5-0.5
		v-2.6c1.531-0.361,6-1.75,6-5.9C272,263.5,265.5,254.5,265.5,254.5 M266,273.41v-3.211l2.85-2.85c0.201-0.189,0.201-0.51,0-0.699
		c-0.188-0.201-0.51-0.201-0.697,0l-2.152,2.15v-3.602l1.85-1.851c0.201-0.188,0.201-0.509,0-0.698c-0.188-0.201-0.51-0.201-0.697,0
		L266,263.8V261c0-0.28-0.221-0.5-0.5-0.5s-0.5,0.22-0.5,0.5v4.801l-1.15-1.15c-0.189-0.201-0.51-0.201-0.699,0
		c-0.199,0.189-0.199,0.51,0,0.699l1.85,1.85v3.602l-2.15-2.15c-0.189-0.199-0.51-0.199-0.699,0c-0.199,0.189-0.199,0.51,0,0.699
		l2.85,2.85v1.211c-1.5-0.371-5.039-1.602-5.039-4.91c0-3.631,3.85-9.771,5.539-12.301c1.691,2.53,5.541,8.67,5.541,12.301
		C271.041,271.809,267.5,273.039,266,273.41"/>
</g>
<g id="bycicle_x5F_use">
	<path fill="#FFD878" d="M220.634,81.2c0-7.181-5.82-13-13-13s-13,5.819-13,13c0,7.18,5.82,13,13,13S220.634,88.38,220.634,81.2"/>
	<path fill="#75EA9C" d="M204.634,88.7c0-3.039-2.462-5.5-5.5-5.5s-5.5,2.461-5.5,5.5c0,3.037,2.462,5.5,5.5,5.5
		S204.634,91.737,204.634,88.7"/>
	<path fill="#75EA9C" d="M221.634,88.7c0-3.039-2.462-5.5-5.5-5.5s-5.5,2.461-5.5,5.5c0,3.037,2.462,5.5,5.5,5.5
		S221.634,91.737,221.634,88.7"/>
	<path fill="#4D5152" d="M216.137,83.198c-0.646,0-1.264,0.117-1.84,0.322l-1.27-2.752l1.402-2.568h2.704c0.276,0,0.5-0.225,0.5-0.5
		c0-0.276-0.224-0.5-0.5-0.5h-6.5c-0.277,0-0.5,0.224-0.5,0.5c0,0.275,0.223,0.5,0.5,0.5h2.658l-1.091,2h-10.119l1.429-5h2.123
		c0.275,0,0.5-0.225,0.5-0.5c0-0.276-0.225-0.5-0.5-0.5h-2.5c-0.223,0-0.419,0.147-0.48,0.361l-2.496,8.734
		c-0.33-0.062-0.672-0.098-1.021-0.098c-3.041,0-5.505,2.463-5.505,5.498s2.464,5.496,5.505,5.496c3.04,0,5.505-2.461,5.505-5.496
		c0-2.338-1.464-4.328-3.523-5.125l0.474-1.656l6.164,7.113l0.06,0.043l0.08,0.068l0.016,0.002l0.218,0.057l0.004,0.002h0.001h2.531
		c0.255,2.799,2.604,4.992,5.472,4.992c3.036,0,5.497-2.461,5.497-5.496S219.173,83.198,216.137,83.198 M203.635,88.704
		c0,2.484-2.014,4.498-4.499,4.498c-2.484,0-4.498-2.014-4.498-4.498c0-2.482,2.014-4.498,4.498-4.498
		c0.253,0,0.498,0.035,0.74,0.074l-1.223,4.283c-0.075,0.264,0.078,0.541,0.344,0.617l0.137,0.02c0.217,0,0.417-0.143,0.48-0.363
		l1.226-4.291C202.479,85.218,203.635,86.823,203.635,88.704 M215.353,88.2h-3.672c0.161-1.42,0.968-2.631,2.134-3.336L215.353,88.2
		z M208.04,87.829l-5.744-6.629h9.36L208.04,87.829z M208.976,88.2l3.456-6.336l0.957,2.076c-1.507,0.873-2.561,2.438-2.724,4.26
		H208.976L208.976,88.2z M216.128,93.202c-2.313,0-4.198-1.754-4.448-4.002h4.454c0.17,0,0.329-0.088,0.421-0.23
		c0.093-0.145,0.104-0.324,0.033-0.479l-1.861-4.039c0.443-0.145,0.909-0.246,1.401-0.246c2.483,0,4.499,2.016,4.499,4.498
		C220.627,91.188,218.612,93.202,216.128,93.202"/>
</g>
<g id="disconnect">
	<path fill="#75EA9C" d="M164.265,81.115c0-7.732-6.268-14-14-14s-14,6.268-14,14s6.268,14,14,14S164.265,88.848,164.265,81.115"/>
	<path fill="#AAAAAA" d="M152.032,75.604l-7.777,7.779l-2.828-2.828c0,0-3.537-3.537,0.353-7.426
		c3.89-3.888,6.718-1.061,6.718-1.061L152.032,75.604z"/>
	<path fill="#AAAAAA" d="M156.274,79.846l-7.777,7.779l2.828,2.828c0,0,3.535,3.537,7.425-0.354c3.89-3.889,1.061-6.717,1.061-6.717
		L156.274,79.846z"/>
	<path fill="#4D5152" d="M159.104,89.744c3.36-3.709,0.71-6.359,0.71-6.359l-3.54-3.54l-7.779,7.78l2.829,2.83
		c0,0,1.471,1.471,3.561,1.471c1.05,0,2.25-0.369,3.5-1.48l4.84,4.84l0.71-0.711L159.104,89.744z M150.624,88.334h-0.01
		l-0.699-0.709l6.359-6.359l0.71,0.709L150.624,88.334z M157.685,89.744c-0.91,0.781-1.85,1.182-2.8,1.182
		c-1.63,0-2.84-1.17-2.851-1.182l-0.71-0.709l6.36-6.36l1.41,1.409c0.2,0.211,1.86,2.102-0.7,4.951L157.685,89.744z"/>
	<path fill="#4D5152" d="M142.635,73.695l-0.28,0.279c0.04-0.05,0.08-0.09,0.131-0.14C142.534,73.785,142.585,73.734,142.635,73.695
		"/>
	<path fill="#4D5152" d="M150.625,77.025l1.409-1.42l-3.539-3.54c0,0-0.99-0.991-2.61-0.991c-1.021,0-2.3,0.4-3.739,1.71
		l-4.841-4.84l-0.71,0.71l4.84,4.84c-3.32,3.741-0.01,7.061-0.01,7.061l2.83,2.83l1.42-1.409l2.82,2.819l0.71-0.711l-2.83-2.818
		l3.54-3.541l2.818,2.83l0.711-0.711L150.625,77.025z M142.135,79.844c-0.12-0.108-2.71-2.778,0.22-5.869
		c0.041-0.051,0.08-0.09,0.131-0.139c0.049-0.052,0.1-0.101,0.149-0.142c1.12-1.08,2.21-1.62,3.25-1.62
		c1.16,0,1.88,0.682,1.91,0.701l1.41,1.419l-6.36,6.36L142.135,79.844z M144.255,81.965l-0.7-0.699l6.36-6.371l0.699,0.711
		L144.255,81.965z"/>
</g>
<g id="eco_x5F_friendly_x5F_vehicle">
	<path fill="#75EA9C" d="M33.02,80.7c0,4.149-4.47,5.539-6,5.9v3.6c0,0.279-0.22,0.5-0.5,0.5s-0.5-0.221-0.5-0.5v-3.6
		c-1.53-0.361-6-1.751-6-5.9c0-5,6.5-14,6.5-14S33.02,75.7,33.02,80.7"/>
	<path fill="#4D5152" d="M26.52,66.7c0,0-6.5,9-6.5,14c0,4.15,4.47,5.539,6,5.9v3.6c0,0.279,0.22,0.5,0.5,0.5s0.5-0.221,0.5-0.5
		v-3.6c1.53-0.361,6-1.75,6-5.9C33.02,75.7,26.52,66.7,26.52,66.7 M27.02,85.61v-3.211l2.851-2.85c0.199-0.189,0.199-0.51,0-0.699
		c-0.189-0.201-0.511-0.201-0.699,0L27.02,81v-3.601l1.851-1.85c0.199-0.189,0.199-0.51,0-0.699c-0.189-0.201-0.511-0.201-0.699,0
		L27.02,76v-2.8c0-0.28-0.22-0.5-0.5-0.5s-0.5,0.22-0.5,0.5V78l-1.149-1.149c-0.19-0.201-0.511-0.201-0.701,0
		c-0.199,0.189-0.199,0.51,0,0.699l1.851,1.85V83l-2.149-2.149c-0.19-0.199-0.511-0.199-0.701,0c-0.199,0.189-0.199,0.51,0,0.699
		l2.851,2.85v1.211c-1.5-0.371-5.04-1.602-5.04-4.91c0-3.631,3.85-9.771,5.54-12.301c1.69,2.53,5.54,8.67,5.54,12.301
		C32.06,84.009,28.52,85.239,27.02,85.61"/>
	<path fill="#4D5152" d="M49.55,85.579c-1.01-1.07-2.51-1.539-8.01-2.039c-1.5-3-4-3.841-8-3.841c-4.5,0-8,2.5-12,4
		C20.6,84.05,20,84.529,20,85.279c0,0.751,1.04,2.991,1.45,4.612c0.289,1.148,1.08,2.238,3.619,2.639
		c0.17,1.781,1.65,3.17,3.471,3.17c1.76,0,3.199-1.309,3.449-3h9.101c0.24,1.691,1.688,3,3.45,3c1.76,0,3.199-1.309,3.449-3h2.051
		c0.529,0,1.02-0.541,1.02-1.02C51.06,89.2,50.59,86.659,49.55,85.579 M34.04,80.72c3.47,0.07,5.399,0.88,6.59,3.27l0.06,0.12
		L38.83,85.7h-4.79V80.72z M33.04,80.72v4.98h-4.69l-1.55-3.15C28.86,81.63,30.88,80.829,33.04,80.72 M28.54,94.7
		c-1.381,0-2.5-1.121-2.5-2.5c0-1.381,1.119-2.5,2.5-2.5c1.38,0,2.5,1.119,2.5,2.5C31.04,93.579,29.92,94.7,28.54,94.7 M44.54,94.7
		c-1.38,0-2.5-1.121-2.5-2.5c0-1.381,1.12-2.5,2.5-2.5s2.5,1.119,2.5,2.5C47.04,93.579,45.92,94.7,44.54,94.7 M50.05,91.63
		l-0.061,0.07h-2c-0.25-1.691-1.689-3-3.449-3c-1.762,0-3.21,1.309-3.45,3h-9.101c-0.25-1.691-1.689-3-3.449-3
		c-1.69,0-3.11,1.201-3.43,2.799c-1.541-0.309-2.461-0.949-2.761-1.949c-0.81-2.779-1.25-3.811-1.25-3.811
		c-0.17-0.549,0.17-0.9,0.87-1.139c1.359-0.471,2.65-1.061,3.92-1.641l1.7,3.459c0.09,0.17,0.26,0.281,0.45,0.281h11
		c0.13,0,0.26-0.049,0.35-0.15l2.31-1.989c5.381,0.509,6.44,0.989,7.12,1.71c0.709,0.738,1.23,2.93,1.23,5.139V91.63z"/>
	<path fill="#ACF0F2" d="M33.04,80.72v4.98h-4.69l-1.55-3.15C28.859,81.63,30.88,80.829,33.04,80.72"/>
	<path fill="#ACF0F2" d="M40.689,84.11l-1.86,1.59H34.04v-4.98c3.47,0.07,5.399,0.881,6.59,3.27L40.689,84.11z"/>
	<path fill="#AAAAAA" d="M47.04,92.2c0,1.379-1.12,2.5-2.5,2.5c-1.381,0-2.5-1.121-2.5-2.5c0-1.381,1.119-2.5,2.5-2.5
		C45.92,89.7,47.04,90.819,47.04,92.2"/>
	<path fill="#AAAAAA" d="M31.04,92.2c0,1.379-1.121,2.5-2.5,2.5c-1.381,0-2.5-1.121-2.5-2.5c0-1.381,1.119-2.5,2.5-2.5
		C29.919,89.7,31.04,90.819,31.04,92.2"/>
	<path fill="#E88C77" d="M50.05,91.409v0.221l-0.061,0.07h-2c-0.25-1.689-1.689-3-3.449-3c-1.762,0-3.21,1.311-3.45,3h-9.101
		c-0.25-1.689-1.689-3-3.449-3c-1.69,0-3.11,1.199-3.43,2.799c-1.541-0.309-2.461-0.949-2.761-1.949
		c-0.81-2.779-1.25-3.811-1.25-3.811c-0.17-0.549,0.17-0.899,0.87-1.14c1.359-0.47,2.65-1.06,3.92-1.64l1.7,3.461
		c0.09,0.17,0.26,0.279,0.45,0.279h11c0.13,0,0.26-0.051,0.35-0.15l2.31-1.99c5.381,0.51,6.44,0.99,7.12,1.711
		C49.528,87.011,50.05,89.2,50.05,91.409"/>
	<path fill="#4D5152" d="M35.06,95.2c0-0.275-0.225-0.5-0.5-0.5h-13c-0.275,0-0.5,0.225-0.5,0.5s0.225,0.5,0.5,0.5h13
		C34.835,95.7,35.06,95.476,35.06,95.2"/>
	<path fill="#4D5152" d="M51.06,95.2c0-0.275-0.224-0.5-0.5-0.5h-13c-0.276,0-0.5,0.225-0.5,0.5s0.224,0.5,0.5,0.5h13
		C50.836,95.7,51.06,95.476,51.06,95.2"/>
</g>
<g id="electronic_x5F_recycling">
	<g>
		<path fill="#FF61E1" d="M280,75.2c0,0,0,17-3,17h-15c-3,0-3-17-3-17H280z"/>
		<path fill="#FF80ED" d="M280,70.2v5h-21v-5c0,0,0-4,4-4h13C276,66.2,280,66.2,280,70.2"/>
		<path fill="#FF61E1" d="M263,66.2v5c0,0,0,2,2,2h9c0,0,2,0,2-2v-5H263z"/>
		<path fill="#4D5152" d="M275.996,67.2c0.506,0.006,3.004,0.18,3.004,3v4h-19v-3.994c0.006-0.502,0.177-3.006,3-3.006H275.996
			 M276,66.2h-13c-4,0-4,4-4,4v4v1h21v-5C280,66.2,276,66.2,276,66.2"/>
		<path fill="#4D5152" d="M275,67.2v4c0,0.805-0.55,0.987-1,1h-9c-0.805,0-0.988-0.551-1-1v-4H275 M276,66.2h-13v5c0,0,0,2,2,2h9
			c0,0,2,0,2-2V66.2z"/>
		<path fill="#4D5152" d="M279,75.2c0,7.826-0.957,15.25-2.056,16h-14.888c-1.117-0.756-2.056-8.035-2.057-16H279 M280,74.2h-21v1
			c0,0,0,17,3,17h15c3,0,3-17,3-17V74.2z"/>
		<path fill="#AAAAAA" d="M266,72.2v23c0,0.549-0.45,1-1,1h-14c-0.55,0-1-0.451-1-1v-23c0-0.551,0.45-1,1-1h14
			C265.55,71.2,266,71.649,266,72.2"/>
		<rect x="250" y="75.2" fill="#ACF0F2" width="16" height="16"/>
		<path fill="#4D5152" d="M255,74.2h6v-1h-6V74.2z M258,94.45c0.689,0,1.25-0.561,1.25-1.25s-0.561-1.25-1.25-1.25
			s-1.25,0.561-1.25,1.25S257.311,94.45,258,94.45 M265,71.2h-14c-0.552,0-1,0.446-1,1v23c0,0.553,0.448,1,1,1h14
			c0.553,0,1-0.447,1-1v-23C266,71.646,265.553,71.2,265,71.2 M265,94.2c0,0.553-0.447,1-1,1h-12c-0.552,0-1-0.447-1-1v-3h14V94.2z
			 M265,90.2h-14v-14h14V90.2z M265,75.2h-14v-2c0-0.554,0.448-1,1-1h12c0.553,0,1,0.446,1,1V75.2z"/>
	</g>
</g>
<g id="energy_x5F_saving_x5F_lightbulb">
	<path fill="#FFD878" d="M106.397,79.7c0-7.457-6.044-13.5-13.5-13.5s-13.5,6.043-13.5,13.5c0,7.455,6.044,13.5,13.5,13.5
		S106.397,87.155,106.397,79.7"/>
	<polygon fill="#FFFFFF" points="87.897,80.7 87.897,83.7 89.897,85.7 89.897,88.7 95.897,88.7 95.897,85.7 	"/>
	<path fill="#FFFFFF" d="M101.537,81.271c-0.37,0.64-0.979,1.01-1.67,1.01c-0.54,0-0.95-0.211-1.06-0.281l-11.41-6.589
		c-0.101-0.05-0.44-0.271-0.7-0.67c-0.41-0.62-0.421-1.37-0.03-2.06c0.27-0.472,0.88-1.021,1.71-1.021c0.351,0,0.69,0.1,1.021,0.29
		l11.41,6.59C101.647,79.021,102.188,80.14,101.537,81.271"/>
	<path fill="#FFFFFF" d="M99.667,85.909c-0.369,0.641-0.97,1-1.659,1c-0.54,0-0.95-0.209-1.061-0.27l-11.409-6.58
		c-0.1-0.061-0.439-0.279-0.71-0.68c-0.411-0.62-0.421-1.37-0.021-2.061c0.271-0.47,0.881-1.02,1.699-1.02
		c0.35,0,0.689,0.1,1.031,0.29l11.409,6.591C99.787,83.659,100.317,84.78,99.667,85.909"/>
	<path fill="#FFFFFF" d="M91.007,71.52c-0.41-0.63-0.42-1.38-0.029-2.06c0.27-0.471,0.89-1.03,1.71-1.03c0.351,0,0.69,0.1,1.03,0.29
		l6.5,3.76c0.1,0.061,0.439,0.279,0.71,0.67c0.41,0.63,0.42,1.38,0.029,2.061c-0.369,0.649-0.989,1.01-1.68,1.01
		c-0.54,0-0.939-0.211-1.06-0.27l-6.5-3.761C91.617,72.13,91.268,71.909,91.007,71.52"/>
	<rect x="87.397" y="88.2" fill="#BFBFBF" width="11" height="5"/>
	<polyline fill="none" stroke="#4D5152" stroke-linecap="round" stroke-linejoin="round" stroke-miterlimit="10" points="
		89.897,88.7 89.897,85.7 87.897,83.7 87.897,81.2 	"/>
	<line fill="none" stroke="#4D5152" stroke-linecap="round" stroke-miterlimit="10" x1="95.897" y1="85.7" x2="95.897" y2="88.7"/>
	<path fill="#AAAAAA" d="M89.397,92.2v2c0,0,0,2,2,2h3c0,0,2,0,2-2v-2H89.397z"/>
	<path fill="#4D5152" d="M97.397,92.2h-9v-3h9V92.2z M98.397,88.2h-11v5h11V88.2z"/>
	<path fill="#4D5152" d="M95.397,93.2v1c0,0.807-0.55,0.988-1,1h-3c-0.805,0-0.988-0.551-1-1v-1H95.397 M96.397,92.2h-7v2
		c0,0,0,2,2,2h3c0,0,2,0,2-2V92.2z"/>
	<path fill="#4D5152" d="M86.513,77.3c0.156,0,0.332,0.044,0.525,0.156l11.406,6.588c0,0,0.867,0.5,0.367,1.365
		c-0.232,0.4-0.543,0.51-0.81,0.51c-0.309,0-0.558-0.145-0.558-0.145l-11.406-6.586c0,0-0.865-0.5-0.365-1.367
		C85.673,77.821,85.974,77.3,86.513,77.3 M86.513,76.3L86.513,76.3c-0.824,0-1.435,0.551-1.707,1.021
		c-0.395,0.686-0.385,1.436,0.027,2.06c0.264,0.399,0.607,0.616,0.706,0.673l11.405,6.586c0.113,0.066,0.523,0.279,1.058,0.279
		c0.694,0,1.305-0.369,1.676-1.01c0.396-0.686,0.385-1.436-0.028-2.061c-0.264-0.398-0.606-0.615-0.705-0.673L87.538,76.59
		C87.206,76.397,86.861,76.3,86.513,76.3"/>
	<path fill="#4D5152" d="M88.376,72.66c0.155,0,0.332,0.044,0.524,0.155l11.407,6.587c0,0,0.865,0.501,0.365,1.366
		c-0.232,0.401-0.543,0.51-0.809,0.51c-0.308,0-0.557-0.145-0.557-0.145L87.9,74.548c0,0-0.866-0.5-0.366-1.365
		C87.534,73.183,87.835,72.66,88.376,72.66 M88.376,71.66L88.376,71.66c-0.826,0-1.436,0.551-1.707,1.022
		c-0.396,0.684-0.385,1.435,0.026,2.059c0.265,0.398,0.606,0.615,0.705,0.673L98.808,82c0.112,0.065,0.521,0.278,1.057,0.278
		c0.693,0,1.303-0.368,1.675-1.01c0.649-1.125,0.108-2.246-0.73-2.732L89.4,71.95C89.068,71.759,88.724,71.66,88.376,71.66"/>
	<path fill="#4D5152" d="M92.688,69.435c0.155,0,0.332,0.043,0.526,0.156l6.506,3.758c0,0,0.867,0.5,0.367,1.365
		c-0.232,0.402-0.543,0.51-0.81,0.51c-0.309,0-0.558-0.144-0.558-0.144l-6.506-3.758c0,0-0.867-0.5-0.367-1.366
		C91.847,69.956,92.147,69.435,92.688,69.435 M92.688,68.435L92.688,68.435c-0.825,0-1.437,0.551-1.708,1.021
		c-0.395,0.684-0.384,1.436,0.029,2.061c0.263,0.397,0.606,0.615,0.705,0.672l6.506,3.758c0.113,0.064,0.522,0.277,1.058,0.277
		c0.694,0,1.306-0.369,1.676-1.01c0.396-0.684,0.385-1.435-0.028-2.06c-0.264-0.399-0.606-0.616-0.705-0.673l-6.506-3.758
		C93.38,68.532,93.036,68.435,92.688,68.435"/>
</g>
<g id="sun">
	<polygon fill="#FFD878" points="280,172.6 276,176.6 276,182.6 270,182.6 266,186.6 262,182.6 256,182.6 256,176.6 252,172.6 
		256,168.6 256,162.6 262,162.6 266,158.6 270,162.6 276,162.6 276,168.6 	"/>
	<g>
		<path fill="#FFE4A9" d="M273,172.6c0-3.867-3.134-7-7-7s-7,3.133-7,7c0,3.865,3.134,7,7,7S273,176.465,273,172.6"/>
		<path fill="#4D5152" d="M266,160.014l3.586,3.586H275v5.414l3.586,3.586L275,176.186v5.414h-5.414L266,185.186l-3.586-3.586H257
			v-5.414l-3.586-3.586l3.586-3.586V163.6h5.414L266,160.014z M266,158.6l-4,4h-6v6l-4,4l4,4v6h6l4,4l4-4h6v-6l4-4l-4-4v-6h-6
			L266,158.6z"/>
		<path fill="#4D5152" d="M266,166.6c3.309,0,6,2.69,6,6c0,3.309-2.691,6-6,6s-6-2.691-6-6C260,169.29,262.691,166.6,266,166.6
			 M266,165.6c-3.866,0-7,3.133-7,7c0,3.865,3.134,7,7,7s7-3.135,7-7C273,168.732,269.866,165.6,266,165.6"/>
	</g>
</g>
<g id="trash_x5F_can">
	<rect x="21" y="164.1" fill="#AAAAAA" width="19" height="2"/>
	<path fill="#BFBFBF" d="M41,166.1l-1.5,18.08c-0.05,0.52-0.48,0.92-1,0.92h-16c-0.52,0-0.95-0.4-1-0.92L20,166.1H41z"/>
	<rect x="25" y="169.1" fill="#4D5152" width="1" height="13"/>
	<rect x="30" y="169.1" fill="#4D5152" width="1" height="13"/>
	<rect x="35" y="169.1" fill="#4D5152" width="1" height="13"/>
	<path fill="#4D5152" d="M20,166.1l1.5,18.08c0.05,0.52,0.48,0.92,1,0.92h16c0.52,0,0.95-0.4,1-0.92L41,166.1H20z M38.5,184.1h-16
		l-1.41-17h18.82L38.5,184.1z"/>
	<rect x="25" y="169.1" fill="#4D5152" width="1" height="13"/>
	<rect x="30" y="169.1" fill="#4D5152" width="1" height="13"/>
	<rect x="35" y="169.1" fill="#4D5152" width="1" height="13"/>
	<path fill="#4D5152" d="M39.5,163.1H36v-1.5c0-0.83-0.67-1.5-1.5-1.5h-8c-0.83,0-1.5,0.67-1.5,1.5v1.5h-3.5
		c-1.1,0-1.5,0.899-1.5,1.5v1.5h1v-1.5c0.01-0.24,0.109-0.5,0.5-0.5h18c0.39,0,0.49,0.26,0.5,0.5v1.5h1v-1.5
		C41,163.999,40.6,163.1,39.5,163.1 M35,163.1h-9v-1.5c0-0.28,0.221-0.5,0.5-0.5h8c0.28,0,0.5,0.22,0.5,0.5V163.1z"/>
</g>
<g id="tree_x5F_stomp">
	<path fill="#BF9171" d="M193.17,181.6c0,0-2.002,3,13,3c14.999,0,14.999-3,14.999-3l-2-2v-15H195.17v15L193.17,181.6z"/>
	<path fill="#C9A287" d="M219.169,164.6c0,2.209-5.37,4-11.999,4c-6.631,0-12-1.791-12-4c0-2.211,5.369-4,12-4
		C213.799,160.6,219.169,162.389,219.169,164.6"/>
	<path fill="#4D5152" d="M193.67,182.1c-0.184,0-0.359-0.102-0.447-0.275c-0.123-0.248-0.023-0.549,0.223-0.672
		c0.068-0.035,1.725-0.924,1.725-3.553v-13c0-0.276,0.223-0.5,0.5-0.5c0.275,0,0.5,0.224,0.5,0.5v13c0,3.271-2.184,4.4-2.277,4.447
		C193.82,182.082,193.746,182.1,193.67,182.1"/>
	<path fill="#4D5152" d="M220.668,182.1c-0.075,0-0.151-0.018-0.223-0.053c-0.093-0.047-2.276-1.176-2.276-4.447v-13
		c0-0.276,0.224-0.5,0.5-0.5s0.5,0.224,0.5,0.5v13c0,2.629,1.656,3.518,1.727,3.555c0.244,0.127,0.342,0.426,0.218,0.672
		C221.024,181.998,220.85,182.1,220.668,182.1"/>
	<path fill="#4D5152" d="M207.17,166.6c-3.23,0-6.5-0.859-6.5-2.5c0-0.276,0.225-0.5,0.5-0.5s0.5,0.224,0.5,0.5
		c0,0.508,1.941,1.5,5.5,1.5c4.511,0,5.499-0.723,5.499-1c0-0.278-0.988-1-5.499-1c-0.275,0-0.5-0.225-0.5-0.5
		c0-0.276,0.225-0.5,0.5-0.5c5.825,0,6.499,1.142,6.499,2C213.669,165.457,212.995,166.6,207.17,166.6"/>
	<path fill="#4D5152" d="M198.17,181.1c0,0.275-0.225,0.5-0.5,0.5s-0.5-0.225-0.5-0.5v-8c0-0.276,0.225-0.5,0.5-0.5
		s0.5,0.224,0.5,0.5V181.1z"/>
	<path fill="#4D5152" d="M200.17,175.1c0,0.275-0.225,0.5-0.5,0.5s-0.5-0.225-0.5-0.5v-8c0-0.276,0.225,0.5,0.5,0.5
		s0.5-0.776,0.5-0.5V175.1z"/>
	<path fill="#4D5152" d="M214.169,179.1c0,0.275-0.224,0.5-0.5,0.5s-0.5-0.225-0.5-0.5v-8c0-0.276,0.224-0.5,0.5-0.5
		s0.5,0.224,0.5,0.5V179.1z"/>
	<path fill="#4D5152" d="M212.169,172.1c0,0.275-0.224,0.5-0.5,0.5s-0.5-0.225-0.5-0.5v-4c0-0.276,0.224-0.5,0.5-0.5
		s0.5,0.224,0.5,0.5V172.1z"/>
	<path fill="#4D5152" d="M216.169,181.1c0,0.275-0.224,0.5-0.5,0.5s-0.5-0.225-0.5-0.5v-12c0-0.276,0.224-0.5,0.5-0.5
		s0.5,0.224,0.5,0.5V181.1z"/>
	<path fill="#4D5152" d="M207.17,161.6c7.116,0,10.999,1.981,10.999,3c0,1.018-3.883,3-10.999,3c-7.117,0-11-1.982-11-3
		C196.17,163.581,200.053,161.6,207.17,161.6 M207.17,160.6c-6.627,0-12,1.791-12,4s5.373,4,12,4c6.626,0,11.999-1.791,11.999-4
		S213.796,160.6,207.17,160.6"/>
</g>
<g id="water">
	<path fill="#67DDE0" d="M88.875,162.6c0,0,6,6,6,11c0,6-6,6-6,6s-6,0-6-6C82.875,168.6,88.875,162.6,88.875,162.6"/>
	<path fill="#67DDE0" d="M83.875,182.6c0,1.66-1.34,3-3,3s-3-1.34-3-3s1.34-3,3-3S83.875,180.939,83.875,182.6"/>
	<path fill="#67DDE0" d="M84.875,161.6c0,1.1-0.9,2-2,2s-2-0.9-2-2c0-1.101,0.9-2,2-2S84.875,160.499,84.875,161.6"/>
	<path fill="#67DDE0" d="M80.875,171.1c0,1.379-1.12,2.5-2.5,2.5s-2.5-1.121-2.5-2.5c0-1.381,1.12-2.5,2.5-2.5
		S80.875,169.719,80.875,171.1"/>
	<path fill="#67DDE0" d="M96.875,182.6c0,1.1-0.9,2-2,2s-2-0.9-2-2s0.9-2,2-2S96.875,181.5,96.875,182.6"/>
	<path fill="#67DDE0" d="M102.875,175.1c0,1.379-1.12,2.5-2.5,2.5s-2.5-1.121-2.5-2.5c0-1.381,1.12-2.5,2.5-2.5
		S102.875,173.719,102.875,175.1"/>
	<path fill="#4D5152" d="M88.875,162.6c0,0-6,6-6,11c0,6,6,6,6,6s6,0,6-6C94.875,168.6,88.875,162.6,88.875,162.6 M88.875,178.6
		c-0.2,0-5-0.061-5-5c0-3.551,3.471-7.82,5-9.53c1.53,1.71,5,5.979,5,9.53C93.875,178.42,89.385,178.6,88.875,178.6"/>
	<path fill="#4D5152" d="M80.875,179.6c-1.66,0-3,1.34-3,3s1.34,3,3,3s3-1.34,3-3S82.535,179.6,80.875,179.6 M80.875,184.6
		c-1.1,0-2-0.9-2-2s0.9-2,2-2s2,0.9,2,2S81.975,184.6,80.875,184.6"/>
	<path fill="#67DDE0" d="M100.875,162.6c0,1.66-1.34,3-3,3s-3-1.34-3-3s1.34-3,3-3S100.875,160.939,100.875,162.6"/>
	<path fill="#4D5152" d="M97.875,159.6c-1.66,0-3,1.34-3,3s1.34,3,3,3s3-1.34,3-3S99.535,159.6,97.875,159.6 M97.875,164.6
		c-1.1,0-2-0.9-2-2c0-1.101,0.9-2,2-2s2,0.899,2,2C99.875,163.699,98.975,164.6,97.875,164.6"/>
	<path fill="#4D5152" d="M82.875,159.6c-1.1,0-2,0.899-2,2c0,1.1,0.9,2,2,2s2-0.9,2-2C84.875,160.499,83.975,159.6,82.875,159.6
		 M82.875,162.6c-0.55,0-1-0.451-1-1c0-0.551,0.45-1,1-1s1,0.449,1,1C83.875,162.148,83.425,162.6,82.875,162.6"/>
	<path fill="#4D5152" d="M100.375,172.6c-1.38,0-2.5,1.119-2.5,2.5c0,1.379,1.12,2.5,2.5,2.5s2.5-1.121,2.5-2.5
		C102.875,173.719,101.755,172.6,100.375,172.6 M100.375,176.6c-0.83,0-1.5-0.67-1.5-1.5s0.67-1.5,1.5-1.5s1.5,0.67,1.5,1.5
		S101.205,176.6,100.375,176.6"/>
	<path fill="#4D5152" d="M78.375,168.6c-1.38,0-2.5,1.119-2.5,2.5c0,1.379,1.12,2.5,2.5,2.5s2.5-1.121,2.5-2.5
		C80.875,169.719,79.755,168.6,78.375,168.6 M78.375,172.6c-0.83,0-1.5-0.67-1.5-1.5s0.67-1.5,1.5-1.5s1.5,0.67,1.5,1.5
		S79.205,172.6,78.375,172.6"/>
	<path fill="#4D5152" d="M94.875,180.6c-1.1,0-2,0.9-2,2s0.9,2,2,2s2-0.9,2-2S95.975,180.6,94.875,180.6 M94.875,183.6
		c-0.55,0-1-0.451-1-1c0-0.551,0.45-1,1-1s1,0.449,1,1C95.875,183.148,95.425,183.6,94.875,183.6"/>
	<path fill="#67DDE0" d="M90.875,172.6c0-1.66,1.34-3,3-3s3,1.34,3,3s-1.34,3-3,3S90.875,174.26,90.875,172.6"/>
	<path fill="#4D5152" d="M93.875,169.6c-1.66,0-3,1.34-3,3s1.34,3,3,3s3-1.34,3-3S95.535,169.6,93.875,169.6 M93.875,174.6
		c-1.1,0-2-0.9-2-2c0-1.101,0.9-2,2-2s2,0.899,2,2C95.875,173.699,94.975,174.6,93.875,174.6"/>
</g>
<g id="eolic_x5F_energy">
	<path fill="#67DDE0" d="M156.75,171.85c0-0.281,0.22-0.5,0.5-0.5h5c0-7.73-6.27-14-14-14c-4.75,0-8.96,2.369-11.48,6h5.98
		c0.23-0.01,0.5-0.102,0.5-0.5c0-0.4-0.27-0.49-0.51-0.5c-0.27-0.01-0.49-0.23-0.49-0.51c0.01-0.271,0.23-0.49,0.5-0.49
		c0.6,0,1.5,0.398,1.5,1.5c0,1.1-0.9,1.5-1.5,1.5h-6.62c-0.88,1.51-1.479,3.199-1.739,5h5.859c0.279,0,0.5,0.219,0.5,0.5
		c0,0.279-0.221,0.5-0.5,0.5h-5.96c-0.03,0.33-0.04,0.66-0.04,1c0,3.92,1.609,7.459,4.21,10h4.79c0.279,0,0.5,0.221,0.5,0.5
		s-0.221,0.5-0.5,0.5h-3.65c2.391,1.879,5.391,3,8.65,3c4.3,0,8.15-1.939,10.71-5h-5.71c-0.28,0-0.5-0.221-0.5-0.5s0.22-0.5,0.5-0.5
		h6.48c1.409-2.01,2.3-4.41,2.479-7h-4.96C156.97,172.35,156.75,172.129,156.75,171.85 M149.75,167.35c-0.28,0-0.5-0.221-0.5-0.5
		c0-0.281,0.22-0.5,0.5-0.5h7c0.22-0.01,0.5-0.102,0.5-0.5c0-0.4-0.28-0.49-0.51-0.5c-0.271-0.01-0.49-0.23-0.49-0.51
		c0.01-0.271,0.23-0.49,0.5-0.49c0.6,0,1.5,0.398,1.5,1.5c0,1.1-0.9,1.5-1.5,1.5H149.75z"/>
	<polyline fill="#E88C77" points="146.75,173.85 145.75,187.85 150.75,187.85 149.75,173.85 	"/>
	<rect x="146.25" y="185.35" fill="#4D5152" width="4" height="1"/>
	<polyline fill="none" stroke="#4D5152" stroke-linecap="round" stroke-linejoin="round" stroke-miterlimit="10" points="
		146.75,173.85 145.75,187.85 150.75,187.85 149.75,173.85 	"/>
	<path fill="#BFBFBF" d="M148.25,171.35c0,0-0.227,3.598-3.688,5.604s-6.695,0.414-6.695,0.414s0.227-3.6,3.688-5.605
		S148.25,171.35,148.25,171.35"/>
	<path fill="#BFBFBF" d="M148.25,171.35c0,0,0.227,3.598,3.688,5.604c3.46,2.006,6.694,0.414,6.694,0.414s-0.227-3.6-3.688-5.605
		S148.25,171.35,148.25,171.35"/>
	<path fill="#BFBFBF" d="M148.25,159.35c0,0,3,2,3,6s-3,6-3,6s-3-2-3-6S148.25,159.35,148.25,159.35"/>
	<path fill="#4D5152" d="M145.291,171.75L145.291,171.75c0.748,0,1.387,0.129,1.834,0.254c-0.251,1.018-0.979,2.875-3.064,4.084
		c-1.004,0.582-2.095,0.877-3.235,0.877c-0.747,0-1.386-0.127-1.832-0.254c0.252-1.016,0.983-2.879,3.063-4.084
		C143.061,172.045,144.148,171.75,145.291,171.75 M145.291,170.75c-1.096,0-2.398,0.236-3.736,1.012
		c-3.461,2.006-3.688,5.605-3.688,5.605s1.217,0.598,2.958,0.598c1.096,0,2.399-0.236,3.737-1.012
		c3.461-2.006,3.688-5.604,3.688-5.604S147.032,170.75,145.291,170.75"/>
	<path fill="#4D5152" d="M151.209,171.75c1.142,0,2.229,0.295,3.235,0.877c2.086,1.209,2.814,3.068,3.064,4.084
		c-0.445,0.127-1.084,0.254-1.833,0.254c-1.143,0-2.231-0.295-3.237-0.877c-2.085-1.209-2.813-3.068-3.063-4.084
		C149.822,171.879,150.461,171.75,151.209,171.75 M151.209,170.75c-1.741,0-2.959,0.6-2.959,0.6s0.227,3.598,3.688,5.604
		c1.337,0.775,2.641,1.012,3.737,1.012c1.74,0,2.957-0.598,2.957-0.598s-0.227-3.6-3.688-5.605
		C153.608,170.986,152.305,170.75,151.209,170.75"/>
	<path fill="#4D5152" d="M148.249,160.648c0.752,0.725,2.001,2.293,2.001,4.701c0,2.412-1.246,3.977-1.999,4.701
		c-0.751-0.727-2.001-2.293-2.001-4.701C146.25,162.938,147.495,161.373,148.249,160.648 M148.25,159.35c0,0-3,2-3,6s3,6,3,6
		s3-2,3-6S148.25,159.35,148.25,159.35"/>
	<path fill="#BFBFBF" d="M150.25,171.35c0-1.105-0.896-2-2-2s-2,0.895-2,2c0,1.104,0.896,2,2,2S150.25,172.453,150.25,171.35"/>
	<path fill="#4D5152" d="M148.25,169.35c1.104,0,2,0.895,2,2c0,1.104-0.896,2-2,2s-2-0.896-2-2
		C146.25,170.244,147.146,169.35,148.25,169.35 M148.25,168.35c-1.654,0-3,1.346-3,3c0,1.652,1.346,3,3,3s3-1.348,3-3
		C151.25,169.695,149.904,168.35,148.25,168.35"/>
</g>
<g id="world">
	<path fill="#67DDE0" d="M48,35.5c0-7.732-6.268-14-14-14s-14,6.268-14,14s6.268,14,14,14S48,43.232,48,35.5"/>
	<path fill="#75EA9C" d="M47.5,35c-0.025-0.024-0.051-0.049-0.077-0.072C45.398,33.086,41.487,34.013,40.5,35c-1,1,1.235,3.479-2,5
		c-3.021,1.42-0.813,4.688-4,6c-2.066,0.852-4-2-3-5s-5.889-1.635-4-7c1.05-2.983,3.885-2.252,8-2c3.897,0.238,3-4,1-5s-7,3-8,1
		s4-6,4-6s6.812-0.476,10.753,3.434c3.941,3.908,4.222,9.542,4.222,9.542"/>
	<path fill="#4D5152" d="M34,22.5c7.168,0,13,5.832,13,13s-5.832,13-13,13s-13-5.832-13-13S26.832,22.5,34,22.5 M34,21.5
		c-7.732,0-14,6.268-14,14s6.268,14,14,14s14-6.268,14-14S41.732,21.5,34,21.5"/>
	<path fill="none" stroke="#4D5152" stroke-miterlimit="10" d="M32.5,22c0,0-5,4-4,6s6-2,8.001-1c2,1,2.896,5.238-1,5
		c-4.115-0.252-6.95-0.983-8.001,2c-1.888,5.365,5,4,4,7s0.933,5.852,3,5c3.188-1.313,0.979-4.58,4.001-6c3.234-1.521,1-4,2-5
		s5-1.938,7,0"/>
</g>
<g id="environmental_x5F_company">
	<path fill="#AAAAAA" d="M212.875,42.17v7.33h-20v-16h4v-8h8v12h2.33c0.12,0.359,0.27,0.691,0.449,1c0.48,0.82,1.131,1.48,1.841,2
		c0.12,0.1,0.25,0.191,0.38,0.27c0.67,0.449,1.37,0.791,2,1.041C212.235,41.959,212.575,42.08,212.875,42.17"/>
	<rect x="195.875" y="44.5" fill="#4D5152" width="2" height="2"/>
	<rect x="199.875" y="44.5" fill="#4D5152" width="2" height="2"/>
	<rect x="203.875" y="44.5" fill="#4D5152" width="2" height="2"/>
	<rect x="207.875" y="44.5" fill="#4D5152" width="2" height="2"/>
	<rect x="195.875" y="40.5" fill="#4D5152" width="2" height="2"/>
	<rect x="195.875" y="36.5" fill="#4D5152" width="2" height="2"/>
	<rect x="199.875" y="40.5" fill="#4D5152" width="2" height="2"/>
	<rect x="199.875" y="36.5" fill="#4D5152" width="2" height="2"/>
	<rect x="199.875" y="32.5" fill="#4D5152" width="2" height="2"/>
	<rect x="199.875" y="28.5" fill="#4D5152" width="2" height="2"/>
	<rect x="203.875" y="40.5" fill="#4D5152" width="2" height="2"/>
	<path fill="#4D5152" d="M209.875,40.77v1.73h-2v-2h1.62C209.615,40.6,209.745,40.689,209.875,40.77"/>
	<path fill="#75EA9C" d="M220.875,35.5c0,4.15-4.47,5.539-6,5.9V45c0,0.279-0.22,0.5-0.5,0.5s-0.5-0.221-0.5-0.5v-3.6
		c-1.53-0.361-6-1.75-6-5.9c0-5,6.5-14,6.5-14S220.875,30.5,220.875,35.5"/>
	<path fill="#4D5152" d="M211.875,41.809V48.5h-18V34.499h4v-8h6V38.5h3.779c-0.18-0.311-0.329-0.64-0.449-1.001h-2.33v-12h-8v8h-4
		V49.5h20v-7.33C212.575,42.08,212.235,41.959,211.875,41.809"/>
	<path fill="#4D5152" d="M214.375,21.5c0,0-6.5,9-6.5,14c0,4.15,4.47,5.539,6,5.9V45c0,0.279,0.22,0.5,0.5,0.5s0.5-0.221,0.5-0.5
		v-3.6c1.53-0.361,6-1.75,6-5.9C220.875,30.5,214.375,21.5,214.375,21.5 M214.875,40.41v-3.211l2.85-2.85
		c0.2-0.189,0.2-0.51,0-0.699c-0.188-0.201-0.51-0.201-0.698,0l-2.151,2.149v-3.601l1.85-1.85c0.2-0.189,0.2-0.51,0-0.699
		c-0.188-0.201-0.51-0.201-0.698,0l-1.151,1.149V28c0-0.28-0.22-0.5-0.5-0.5s-0.5,0.22-0.5,0.5v4.8l-1.15-1.149
		c-0.189-0.201-0.51-0.201-0.699,0c-0.2,0.189-0.2,0.51,0,0.699l1.85,1.85V37.8l-2.15-2.149c-0.189-0.199-0.51-0.199-0.699,0
		c-0.2,0.189-0.2,0.51,0,0.698l2.85,2.851v1.211c-1.5-0.371-5.04-1.602-5.04-4.91c0-3.631,3.85-9.771,5.54-12.301
		c1.69,2.53,5.54,8.67,5.54,12.301C219.915,38.809,216.375,40.039,214.875,40.41"/>
</g>
<g id="environmental_x5F_house">
	<path fill="#FFD878" d="M163.17,40.77c-0.09,0.15-0.26,0.23-0.42,0.23c-0.09,0-0.19-0.031-0.27-0.08l-1.23-0.791V51h-25V40.129
		l-1.23,0.791c-0.23,0.15-0.539,0.08-0.689-0.15c-0.15-0.229-0.08-0.539,0.15-0.689l14-9c0.16-0.109,0.379-0.109,0.539,0l1.48,0.949
		c-0.09,0.361-0.15,0.72-0.19,1.06c-0.04,0.321-0.06,0.62-0.06,0.91c0,4.271,3.94,6.03,6,6.671v3.83c0,0.83,0.67,1.5,1.5,1.5
		s1.5-0.67,1.5-1.5v-3.83c0.3-0.09,0.64-0.211,1-0.361c0.56-0.219,1.17-0.51,1.76-0.879l1.01,0.65
		C163.25,40.23,163.32,40.541,163.17,40.77"/>
	<path fill="#E88C77" d="M144.25,51v-5.5c0-1.557,0.939-4.5,4.5-4.5c3.56,0,4.5,2.943,4.5,4.5V51H144.25z"/>
	<path fill="#4D5152" d="M163.02,40.08l-1.01-0.65c-0.59,0.369-1.2,0.66-1.76,0.881V50h-7v-4.5c0-1.561-0.94-4.5-4.5-4.5
		c-3.561,0-4.5,2.939-4.5,4.5V50h-7V39.5h-0.02l11.52-7.41l1.56,1c0.04-0.34,0.101-0.7,0.19-1.061l-1.48-0.949
		c-0.16-0.11-0.379-0.11-0.539,0l-14,9c-0.23,0.15-0.301,0.459-0.15,0.689s0.459,0.301,0.689,0.15l1.23-0.791V51h25V40.129
		l1.23,0.791c0.079,0.051,0.18,0.08,0.27,0.08c0.16,0,0.33-0.08,0.42-0.23C163.32,40.539,163.25,40.23,163.02,40.08 M152.25,50h-7
		v-4.5c0-0.141,0.061-3.5,3.5-3.5c3.44,0,3.5,3.359,3.5,3.5V50z"/>
	<path fill="#75EA9C" d="M164.25,34c0,4.148-4.47,5.539-6,5.9v4.6c0,0.279-0.22,0.5-0.5,0.5s-0.5-0.221-0.5-0.5v-4.6
		c-1.53-0.361-6-1.752-6-5.9c0-5,6.5-14,6.5-14S164.25,29,164.25,34"/>
	<path fill="#4D5152" d="M157.75,20c0,0-6.5,9-6.5,14c0,4.15,4.47,5.539,6,5.9v4.6c0,0.279,0.22,0.5,0.5,0.5s0.5-0.221,0.5-0.5v-4.6
		c1.53-0.361,6-1.75,6-5.9C164.25,29,157.75,20,157.75,20 M158.25,38.91v-3.211l2.85-2.85c0.2-0.189,0.2-0.51,0-0.699
		c-0.188-0.201-0.51-0.201-0.698,0L158.25,34.3v-3.601l1.85-1.85c0.2-0.189,0.2-0.51,0-0.699c-0.188-0.201-0.51-0.201-0.698,0
		L158.25,29.3v-2.8c0-0.28-0.22-0.5-0.5-0.5s-0.5,0.22-0.5,0.5v4.8l-1.15-1.149c-0.189-0.201-0.51-0.201-0.699,0
		c-0.2,0.189-0.2,0.51,0,0.699l1.85,1.85V36.3l-2.15-2.149c-0.189-0.199-0.51-0.199-0.699,0c-0.2,0.189-0.2,0.51,0,0.698l2.85,2.851
		v1.211c-1.5-0.371-5.04-1.601-5.04-4.91c0-3.631,3.85-9.771,5.54-12.301c1.69,2.53,5.54,8.67,5.54,12.301
		C163.29,37.309,159.75,38.539,158.25,38.91"/>
</g>
<g id="flower">
	<line fill="none" stroke="#4D5152" stroke-linecap="round" stroke-miterlimit="10" x1="268" y1="32" x2="249" y2="51"/>
	<path fill="#67DDE0" d="M277.55,35.96c1.4,2.07-1.06,4.53-1.06,4.53s-1.5,1.49-3.13,1.49c-0.46,0-0.95-0.121-1.4-0.439
		C271.51,44,268,44,268,44s-3.51,0-3.96-2.459c-0.45,0.318-0.94,0.439-1.4,0.439c-1.63,0-3.13-1.49-3.13-1.49s-2.46-2.47-1.05-4.53
		C256,35.511,256,32,256,32s0-3.5,2.449-3.96c-1.399-2.07,1.061-4.53,1.061-4.53s1.5-1.49,3.13-1.49c0.46,0,0.95,0.12,1.4,0.44
		C264.49,20,268,20,268,20s3.51,0,3.96,2.46c0.45-0.32,0.94-0.44,1.4-0.44c1.63,0,3.13,1.49,3.13,1.49s2.46,2.47,1.05,4.53
		C280,28.491,280,32,280,32S280,35.501,277.55,35.96"/>
	<path fill="#FFD878" d="M273,32c0-2.761-2.238-5-5-5s-5,2.239-5,5s2.238,5,5,5S273,34.762,273,32"/>
	<path fill="#4D5152" d="M280,32c0,0,0-3.51-2.46-3.96c1.41-2.06-1.05-4.53-1.05-4.53s-1.5-1.49-3.13-1.49
		c-0.46,0-0.95,0.12-1.4,0.44C271.51,20,268,20,268,20s-3.51,0-3.96,2.46c-0.45-0.32-0.94-0.44-1.399-0.44
		c-1.631,0-3.131,1.49-3.131,1.49s-2.46,2.46-1.06,4.53C256,28.5,256,32,256,32s0,3.51,2.46,3.959c-1.41,2.061,1.05,4.53,1.05,4.53
		s1.5,1.49,3.131,1.49c0.459,0,0.949-0.121,1.399-0.439C264.49,44,268,44,268,44s3.51,0,3.96-2.459c0.45,0.318,0.94,0.439,1.4,0.439
		c1.63,0,3.13-1.49,3.13-1.49s2.46-2.46,1.06-4.53C280,35.501,280,32,280,32 M271.95,23.84c0.08-0.11,0.18-0.22,0.29-0.33
		c0.34-0.33,0.689-0.49,1.12-0.49c0.979,0,2.08,0.87,2.42,1.2c0,0.01,0.59,0.6,0.939,1.39c0.54,1.18,0.12,1.79-0.229,2.15
		c-0.11,0.11-0.221,0.21-0.33,0.29c-1.11,0.98-2.57,1.58-3.59,1.91c-0.41-0.9-1.07-1.66-1.891-2.18
		C271.18,26.811,271.78,25.36,271.95,23.84 M272,32c0,2.209-1.79,4-4,4s-4-1.791-4-4c0-2.21,1.79-4,4-4S272,29.791,272,32 M268,21
		c0.16,0,3,0.06,3,2c0,0.15-0.01,0.29-0.02,0.44c-0.101,1.48-0.7,2.93-1.181,3.89c-0.56-0.21-1.17-0.33-1.8-0.33
		c-0.37,0-0.73,0.04-1.08,0.12c-0.34-1.03-0.939-2.48-1.9-3.68C265.01,23.3,265,23.15,265,23C265,21.061,267.84,21,268,21
		 M260.221,24.221c0.309-0.31,1.43-1.2,2.42-1.2c0.42,0,0.779,0.16,1.119,0.49c0.11,0.11,0.211,0.22,0.29,0.33
		c0.98,1.11,1.58,2.57,1.91,3.59c-0.9,0.41-1.66,1.07-2.181,1.89c-0.969-0.5-2.42-1.1-3.939-1.27c-0.109-0.08-0.22-0.18-0.33-0.29
		C258.13,26.371,260.141,24.311,260.221,24.221 M257,32c0-0.12,0.04-3,2-3c0.141,0,0.29,0.01,0.43,0.01
		c1.48,0.11,2.94,0.71,3.9,1.19c-0.21,0.56-0.33,1.17-0.33,1.8c0,0.37,0.04,0.73,0.12,1.08c-1.03,0.34-2.479,0.94-3.681,1.9
		c-0.149,0.011-0.289,0.021-0.439,0.021C257.04,35.001,257,32.121,257,32 M264.05,40.16c-0.079,0.109-0.18,0.221-0.29,0.33
		c-0.34,0.33-0.699,0.49-1.119,0.49c-0.98,0-2.08-0.871-2.42-1.201c-0.08-0.09-2.101-2.139-0.711-3.538
		c0.11-0.111,0.221-0.211,0.33-0.291c1.11-0.979,2.57-1.58,3.59-1.91c0.41,0.9,1.07,1.66,1.891,2.181
		C264.82,37.19,264.221,38.641,264.05,40.16 M268,43c-0.12,0-3-0.039-3-2c0-0.15,0.01-0.289,0.02-0.439
		c0.101-1.48,0.7-2.93,1.181-3.89C266.76,36.88,267.37,37,268,37c0.37,0,0.73-0.04,1.08-0.12c0.34,1.03,0.939,2.479,1.9,3.681
		C270.99,40.701,271,40.85,271,41C271,42.961,268.12,43,268,43 M275.78,39.779c-0.34,0.33-1.44,1.201-2.42,1.201
		c-0.42,0-0.78-0.16-1.12-0.49c-0.11-0.109-0.21-0.221-0.29-0.33c-0.98-1.109-1.58-2.57-1.91-3.59c0.9-0.409,1.66-1.069,2.18-1.89
		c0.971,0.5,2.42,1.1,3.94,1.27c0.109,0.08,0.22,0.18,0.33,0.291C277.87,37.631,275.86,39.689,275.78,39.779 M277,35.001
		c-0.14,0-0.29-0.01-0.43-0.01c-1.48-0.111-2.94-0.711-3.9-1.191C272.88,33.241,273,32.63,273,32c0-0.37-0.04-0.73-0.12-1.08
		c1.03-0.34,2.48-0.94,3.68-1.9c0.15-0.01,0.29-0.02,0.44-0.02c1.96,0,2,2.88,2,3S278.96,35.001,277,35.001"/>
	<path fill="#75EA9C" d="M255.721,43.551c-0.24,0.719-0.681,1.189-0.771,1.279s-0.96,0.92-2.17,0.92c-0.53,0-1.31-0.16-2.07-0.92
		c-1.659-1.66-1.71-4.619-1.71-4.949v-1h1c0.33,0,3.29,0.049,4.95,1.709C255.801,41.441,256.08,42.49,255.721,43.551"/>
	<path fill="#4D5152" d="M250,39.879c0,0,2.829,0,4.243,1.414c1.415,1.414,0,2.828,0,2.828s-0.628,0.629-1.468,0.629
		c-0.418,0-0.889-0.156-1.361-0.629C250,42.707,250,39.879,250,39.879 M250,38.879h-1v1c0,0.332,0.048,3.291,1.707,4.949
		c0.762,0.762,1.546,0.922,2.068,0.922c1.219,0,2.08-0.826,2.175-0.922c0.087-0.088,0.532-0.557,0.772-1.273
		c0.354-1.064,0.079-2.117-0.772-2.969C253.291,38.928,250.332,38.879,250,38.879"/>
</g>
<g id="forest">
	<path fill="#66C681" d="M95.625,30c0-5.247-4.253-9.5-9.5-9.5s-9.5,4.253-9.5,9.5s4.253,9.5,9.5,9.5S95.625,35.247,95.625,30"/>
	<path fill="#4D5152" d="M95.625,30c0-5.25-4.25-9.5-9.5-9.5s-9.5,4.25-9.5,9.5c0,5.08,3.98,9.23,9,9.49v5.01h-1.5
		c-0.279,0-0.5,0.221-0.5,0.5s0.221,0.5,0.5,0.5h4c0.279,0,0.5-0.221,0.5-0.5s-0.221-0.5-0.5-0.5h-1.5v-5.01
		C91.645,39.23,95.625,35.08,95.625,30 M86.125,28.5c-0.279,0-0.5,0.22-0.5,0.5v5l-3.2-2.4c-0.22-0.16-0.53-0.12-0.7,0.1
		c-0.17,0.22-0.119,0.53,0.101,0.7l3.8,2.85v3.24c-4.46-0.26-8-3.971-8-8.49c0-4.69,3.811-8.5,8.5-8.5s8.5,3.81,8.5,8.5
		c0,4.52-3.54,8.23-8,8.49v-5.24l3.8-2.85c0.22-0.17,0.271-0.48,0.101-0.7c-0.17-0.22-0.479-0.26-0.699-0.1L86.625,32v-3
		C86.625,28.72,86.404,28.5,86.125,28.5"/>
	<path fill="#6ED68E" d="M106.625,32c0-5.247-4.253-9.5-9.5-9.5s-9.5,4.253-9.5,9.5s4.253,9.5,9.5,9.5S106.625,37.247,106.625,32"/>
	<path fill="#4D5152" d="M106.625,32c0-5.25-4.25-9.5-9.5-9.5s-9.5,4.25-9.5,9.5c0,5.08,3.98,9.23,9,9.49v5.01h-1.5
		c-0.28,0-0.5,0.221-0.5,0.5s0.22,0.5,0.5,0.5h4c0.28,0,0.5-0.221,0.5-0.5s-0.22-0.5-0.5-0.5h-1.5v-5.01
		C102.645,41.23,106.625,37.08,106.625,32 M97.125,30.5c-0.28,0-0.5,0.22-0.5,0.5v5l-3.2-2.4c-0.22-0.16-0.53-0.12-0.7,0.1
		c-0.17,0.22-0.119,0.53,0.101,0.7l3.8,2.85v3.24c-4.46-0.26-8-3.971-8-8.49c0-4.69,3.811-8.5,8.5-8.5c4.69,0,8.5,3.81,8.5,8.5
		c0,4.52-3.54,8.23-8,8.49v-5.24l3.8-2.85c0.22-0.17,0.271-0.48,0.102-0.7c-0.17-0.22-0.48-0.26-0.7-0.1L97.625,34v-3
		C97.625,30.72,97.405,30.5,97.125,30.5"/>
	<path fill="#75EA9C" d="M100.625,35c0-5.247-4.253-9.5-9.5-9.5s-9.5,4.253-9.5,9.5s4.253,9.5,9.5,9.5S100.625,40.247,100.625,35"/>
	<path fill="#4D5152" d="M100.625,35c0-5.25-4.25-9.5-9.5-9.5s-9.5,4.25-9.5,9.5c0,5.08,3.98,9.23,9,9.49v5.01h-1.5
		c-0.279,0-0.5,0.221-0.5,0.5s0.221,0.5,0.5,0.5h4c0.28,0,0.5-0.221,0.5-0.5s-0.22-0.5-0.5-0.5h-1.5v-5.01
		C96.645,44.23,100.625,40.08,100.625,35 M91.125,33.5c-0.279,0-0.5,0.22-0.5,0.5v5l-3.2-2.4c-0.22-0.16-0.53-0.119-0.7,0.101
		s-0.119,0.53,0.101,0.7l3.8,2.85v3.24c-4.46-0.26-8-3.971-8-8.49c0-4.69,3.811-8.5,8.5-8.5c4.69,0,8.5,3.81,8.5,8.5
		c0,4.52-3.54,8.23-8,8.49v-5.24l3.8-2.85c0.22-0.17,0.271-0.48,0.102-0.7s-0.48-0.261-0.7-0.101L91.625,37v-3
		C91.625,33.72,91.404,33.5,91.125,33.5"/>
</g>
<g id="save_x5F_the_x5F_world">
	<path fill="#67DDE0" d="M280,124.9c0-7.732-6.268-14-14-14s-14,6.268-14,14s6.268,14,14,14S280,132.633,280,124.9"/>
	<path fill="#75EA9C" d="M279.5,124.4c-0.025-0.024-0.051-0.049-0.077-0.072c-2.024-1.842-5.936-0.915-6.923,0.072
		c-1,1,1.235,3.479-2,5c-3.021,1.42-0.813,2.688-4,4c-2.066,0.852-4,0-3-3s-5.889-1.635-4-7c1.05-2.983,3.885-2.252,8-2
		c3.897,0.238,3-4,1-5s-7,3-8,1s4-6,4-6s6.812-0.476,10.753,3.434c3.941,3.908,4.222,9.542,4.222,9.542"/>
	<path fill="#4D5152" d="M266,111.9c7.168,0,13,5.832,13,13s-5.832,13-13,13s-13-5.832-13-13S258.832,111.9,266,111.9 M266,110.9
		c-7.732,0-14,6.268-14,14s6.268,14,14,14s14-6.268,14-14S273.732,110.9,266,110.9"/>
	<path fill="none" stroke="#4D5152" stroke-miterlimit="10" d="M264.5,111.4c0,0-5,4-4,6s6-2,8-1s2.897,5.238-1,5
		c-4.115-0.252-6.95-0.983-8,2c-1.889,5.365,5,4,4,7s0.934,3.852,3,3c3.187-1.313,0.979-2.58,4-4c3.235-1.521,1-4,2-5s5-1.938,7,0"
		/>
	<path fill="#FFE4A9" d="M274.3,139.789l-0.51,0.262c-3.19,1.59-5.71,2.85-8.79,2.85c-2.94,0-10.91-2.59-12.16-3H248v-9h4
		c0.38,0,0.59,0,1.29-0.711c1.079-1.07,2.28-1.6,3.68-1.6c1.16,0,2.261,0.359,3.32,0.711c0.96,0.309,1.87,0.6,2.71,0.6
		c2.39,0,6,0,6,2.5s-1.99,2.5-5,2.5h-0.1c-0.5,0-1.091,0-1.471,0.039c0.43,1.191,1.01,1.381,2.891,2.01
		c0.3,0.102,0.64,0.152,1.01,0.152c1.32,0,2.86-0.643,4.21-1.211c1.26-0.531,2.35-0.99,3.31-0.99s1.841,0.781,2.091,1.84
		C276.16,137.709,275.85,139.02,274.3,139.789"/>
	<rect x="248" y="130.9" fill="#67DDE0" width="4" height="9"/>
	<path fill="#4D5152" d="M275.94,136.74c-0.25-1.061-1.131-1.84-2.091-1.84s-2.05,0.459-3.31,0.99c-1.35,0.57-2.89,1.209-4.21,1.209
		c-0.37,0-0.71-0.049-1.01-0.15c-1.88-0.629-2.459-0.818-2.891-2.01c0.38-0.039,0.971-0.039,1.471-0.039h0.1c3.01,0,5,0,5-2.5
		s-3.61-2.5-6-2.5c-0.84,0-1.75-0.291-2.711-0.601c-1.059-0.351-2.16-0.71-3.318-0.71c-1.4,0-2.6,0.53-3.682,1.6
		c-0.699,0.711-0.91,0.711-1.289,0.711h-4v9h4.84c1.25,0.41,9.22,3,12.16,3c3.08,0,5.6-1.26,8.79-2.85l0.51-0.26
		C275.85,139.02,276.16,137.711,275.94,136.74 M251,138.9h-2v-7h2V138.9z M273.85,138.9c-3.39,1.689-5.85,3-8.85,3s-12-3-12-3h-1v-7
		c0.52,0,1,0,2-1c0.979-0.98,1.971-1.311,2.971-1.311c2,0,4.029,1.311,6.029,1.311s5,0,5,1.5s-1,1.5-4,1.5h-0.1
		c-1.93,0-2.861,0.01-2.5,1.119c0.6,1.881,1.569,2.201,3.6,2.881c0.43,0.141,0.88,0.199,1.33,0.199c2.729,0,5.8-2.199,7.52-2.199
		C274.85,135.9,275.85,137.9,273.85,138.9"/>
</g>
<g id="water_x5F_preservation">
	<path fill="#AAAAAA" d="M222.125,126.9h-5.5c-0.98,2.35-3.3,4-6,4s-5.02-1.65-6-4h-2.5v4h-6v-4c0-4.4,3.59-6,6-6h3.02
		c0.9-1.4,2.311-2.431,3.98-2.82v-1.68c-0.14-0.11-0.28-0.23-0.4-0.371c-0.979,0.461-2.14,0.871-3.1,0.871
		c-1.98,0-2.5-1.641-2.5-2.5c0-0.86,0.52-2.5,2.5-2.5c0.96,0,2.12,0.41,3.1,0.869c0.46-0.529,1.141-0.869,1.9-0.869
		s1.44,0.34,1.9,0.869c0.979-0.459,2.14-0.869,3.1-0.869c1.98,0,2.5,1.64,2.5,2.5c0,0.859-0.52,2.5-2.5,2.5
		c-0.96,0-2.12-0.41-3.1-0.871c-0.12,0.141-0.261,0.261-0.4,0.371v1.68c2.04,0.48,3.71,1.92,4.5,3.82h5.5V126.9z"/>
	<path fill="#4D5152" d="M222.125,121.9h-5.5c-0.79-1.9-2.46-3.34-4.5-3.82v-1.68c0.14-0.11,0.28-0.23,0.4-0.371
		c0.979,0.461,2.14,0.871,3.1,0.871c1.98,0,2.5-1.641,2.5-2.5c0-0.86-0.52-2.5-2.5-2.5c-0.96,0-2.12,0.41-3.1,0.869
		c-0.46-0.529-1.141-0.869-1.9-0.869s-1.44,0.34-1.9,0.869c-0.979-0.459-2.14-0.869-3.1-0.869c-1.98,0-2.5,1.64-2.5,2.5
		c0,0.859,0.52,2.5,2.5,2.5c0.96,0,2.12-0.41,3.1-0.871c0.12,0.141,0.261,0.261,0.4,0.371v1.68c-1.67,0.39-3.08,1.42-3.98,2.82
		h-3.02c-2.41,0-6,1.6-6,6v4h6v-4h2.5c0.98,2.35,3.3,4,6,4s5.02-1.65,6-4h5.5v-1h-5.18c0.12-0.48,0.18-0.98,0.18-1.5
		c0-0.521-0.06-1.021-0.18-1.5h5.18V121.9z M213.015,113.65c0.86-0.4,1.83-0.75,2.61-0.75c1.41,0,1.5,1.25,1.5,1.5
		s-0.09,1.5-1.5,1.5c-0.78,0-1.75-0.351-2.61-0.75c0.07-0.23,0.11-0.49,0.11-0.75S213.085,113.88,213.015,113.65 M208.235,115.15
		c-0.86,0.399-1.831,0.75-2.61,0.75c-1.41,0-1.5-1.25-1.5-1.5s0.09-1.5,1.5-1.5c0.779,0,1.75,0.35,2.61,0.75
		c-0.07,0.229-0.11,0.49-0.11,0.75S208.165,114.92,208.235,115.15 M210.625,112.9c0.83,0,1.5,0.67,1.5,1.5s-0.67,1.5-1.5,1.5
		s-1.5-0.67-1.5-1.5S209.795,112.9,210.625,112.9 M211.125,116.85v1.07c-0.17-0.01-0.33-0.02-0.5-0.02s-0.33,0.01-0.5,0.02v-1.07
		c0.16,0.03,0.33,0.051,0.5,0.051S210.965,116.88,211.125,116.85 M210.625,129.9c-2.13,0-3.98-1.221-4.891-3
		c-0.17-0.32-0.299-0.65-0.389-1h-3.221c-1,0.039-1,0.66-1,1v3h-4v-3c0-3.67,2.99-5,5-5h3.609c0.111-0.23,0.24-0.44,0.391-0.65
		c0.99-1.42,2.64-2.35,4.5-2.35c3.03,0,5.5,2.47,5.5,5.5C216.125,127.43,213.655,129.9,210.625,129.9"/>
	<path fill="#67DDE0" d="M221.125,135.4c0,0.279-0.22,0.5-0.5,0.5c-1.83,0-2.69-0.701-3.38-1.26c-0.521-0.43-0.9-0.74-1.62-0.74
		s-1.1,0.311-1.62,0.74c-0.689,0.559-1.55,1.26-3.38,1.26s-2.69-0.701-3.38-1.26c-0.521-0.43-0.899-0.74-1.62-0.74
		s-1.1,0.311-1.62,0.74c-0.69,0.559-1.55,1.26-3.38,1.26c-0.279,0-0.5-0.221-0.5-0.5s0.221-0.5,0.5-0.5c1.471,0,2.09-0.5,2.75-1.041
		c0.57-0.469,1.17-0.959,2.25-0.959s1.68,0.49,2.25,0.959c0.66,0.541,1.28,1.041,2.75,1.041s2.09-0.5,2.75-1.041
		c0.57-0.469,1.17-0.959,2.25-0.959s1.68,0.49,2.25,0.959c0.66,0.541,1.28,1.041,2.75,1.041
		C220.905,134.9,221.125,135.121,221.125,135.4"/>
	<path fill="#ACF0F2" d="M212.125,138.4c0,0.279-0.22,0.5-0.5,0.5c-1.83,0-2.69-0.701-3.38-1.26c-0.521-0.43-0.9-0.74-1.62-0.74
		c-0.721,0-1.1,0.311-1.62,0.74c-0.69,0.559-1.55,1.26-3.38,1.26s-2.689-0.701-3.38-1.26c-0.521-0.43-0.899-0.74-1.62-0.74
		s-1.1,0.311-1.62,0.74c-0.69,0.559-1.55,1.26-3.38,1.26c-0.279,0-0.5-0.221-0.5-0.5s0.221-0.5,0.5-0.5c1.471,0,2.09-0.5,2.75-1.041
		c0.57-0.469,1.17-0.959,2.25-0.959s1.68,0.49,2.25,0.959c0.66,0.541,1.279,1.041,2.75,1.041s2.09-0.5,2.75-1.041
		c0.57-0.469,1.17-0.959,2.25-0.959s1.68,0.49,2.25,0.959c0.66,0.541,1.28,1.041,2.75,1.041
		C211.905,137.9,212.125,138.121,212.125,138.4"/>
	<path fill="#4D5152" d="M221.125,134.4c0,0.279-0.22,0.5-0.5,0.5c-1.83,0-2.69-0.701-3.38-1.26c-0.521-0.43-0.9-0.74-1.62-0.74
		s-1.1,0.311-1.62,0.74c-0.689,0.559-1.55,1.26-3.38,1.26s-2.69-0.701-3.38-1.26c-0.521-0.43-0.899-0.74-1.62-0.74
		s-1.1,0.311-1.62,0.74c-0.69,0.559-1.55,1.26-3.38,1.26c-0.279,0-0.5-0.221-0.5-0.5s0.221-0.5,0.5-0.5c1.471,0,2.09-0.5,2.75-1.041
		c0.57-0.469,1.17-0.959,2.25-0.959s1.68,0.49,2.25,0.959c0.66,0.541,1.28,1.041,2.75,1.041s2.09-0.5,2.75-1.041
		c0.57-0.469,1.17-0.959,2.25-0.959s1.68,0.49,2.25,0.959c0.66,0.541,1.28,1.041,2.75,1.041
		C220.905,133.9,221.125,134.121,221.125,134.4"/>
	<path fill="#4D5152" d="M212.125,137.4c0,0.279-0.22,0.5-0.5,0.5c-1.83,0-2.69-0.701-3.38-1.26c-0.521-0.43-0.9-0.74-1.62-0.74
		c-0.721,0-1.1,0.311-1.62,0.74c-0.69,0.559-1.55,1.26-3.38,1.26s-2.689-0.701-3.38-1.26c-0.521-0.43-0.899-0.74-1.62-0.74
		s-1.1,0.311-1.62,0.74c-0.69,0.559-1.55,1.26-3.38,1.26c-0.279,0-0.5-0.221-0.5-0.5s0.221-0.5,0.5-0.5c1.471,0,2.09-0.5,2.75-1.041
		c0.57-0.469,1.17-0.959,2.25-0.959s1.68,0.49,2.25,0.959c0.66,0.541,1.279,1.041,2.75,1.041s2.09-0.5,2.75-1.041
		c0.57-0.469,1.17-0.959,2.25-0.959s1.68,0.49,2.25,0.959c0.66,0.541,1.28,1.041,2.75,1.041
		C211.905,136.9,212.125,137.121,212.125,137.4"/>
	<path fill="#67DDE0" d="M221.125,141.4c0,0.279-0.22,0.5-0.5,0.5c-1.83,0-2.69-0.701-3.38-1.26c-0.521-0.43-0.9-0.74-1.62-0.74
		s-1.1,0.311-1.62,0.74c-0.689,0.559-1.55,1.26-3.38,1.26s-2.69-0.701-3.38-1.26c-0.521-0.43-0.899-0.74-1.62-0.74
		s-1.1,0.311-1.62,0.74c-0.69,0.559-1.55,1.26-3.38,1.26c-0.279,0-0.5-0.221-0.5-0.5s0.221-0.5,0.5-0.5c1.471,0,2.09-0.5,2.75-1.041
		c0.57-0.469,1.17-0.959,2.25-0.959s1.68,0.49,2.25,0.959c0.66,0.541,1.28,1.041,2.75,1.041s2.09-0.5,2.75-1.041
		c0.57-0.469,1.17-0.959,2.25-0.959s1.68,0.49,2.25,0.959c0.66,0.541,1.28,1.041,2.75,1.041
		C220.905,140.9,221.125,141.121,221.125,141.4"/>
	<path fill="#4D5152" d="M221.125,140.4c0,0.279-0.22,0.5-0.5,0.5c-1.83,0-2.69-0.701-3.38-1.26c-0.521-0.43-0.9-0.74-1.62-0.74
		s-1.1,0.311-1.62,0.74c-0.689,0.559-1.55,1.26-3.38,1.26s-2.69-0.701-3.38-1.26c-0.521-0.43-0.899-0.74-1.62-0.74
		s-1.1,0.311-1.62,0.74c-0.69,0.559-1.55,1.26-3.38,1.26c-0.279,0-0.5-0.221-0.5-0.5s0.221-0.5,0.5-0.5c1.471,0,2.09-0.5,2.75-1.041
		c0.57-0.469,1.17-0.959,2.25-0.959s1.68,0.49,2.25,0.959c0.66,0.541,1.28,1.041,2.75,1.041s2.09-0.5,2.75-1.041
		c0.57-0.469,1.17-0.959,2.25-0.959s1.68,0.49,2.25,0.959c0.66,0.541,1.28,1.041,2.75,1.041
		C220.905,139.9,221.125,140.121,221.125,140.4"/>
</g>
<g id="whitered_x5F_flower">
	<path fill="#FFD878" d="M163.25,126.15c0-7.732-6.268-14-14-14s-14,6.268-14,14s6.268,14,14,14S163.25,133.883,163.25,126.15"/>
	<path fill="none" stroke="#4D5152" stroke-miterlimit="10" d="M145.75,118.65c0,0,0-3,3-3c4,0,6,4,4,10s-5,16-5,16"/>
	<path fill="#C9A287" d="M150.25,122.15v6l-3-2l-2,3l-2-3l-3,2v-6c0-4,5-4,5-4S150.25,118.15,150.25,122.15"/>
	<path fill="#75EA9C" d="M161.26,129.15c0,0-1,3-4,4c-0.43,0.141-0.859,0.199-1.279,0.199c-2.4,0-4.521-2-4.721-2.199c0,0,2-4,5-4
		S161.26,129.15,161.26,129.15"/>
	<path fill="#4D5152" d="M145.251,119.15c0.179,0,3.999,0.039,3.999,3v4.131l-1.445-0.963l-0.832-0.556l-0.555,0.832l-1.168,1.752
		l-1.168-1.752l-0.555-0.832l-0.832,0.556l-1.445,0.963v-4.131C141.25,119.216,145.064,119.15,145.251,119.15 M145.25,118.15
		c0,0-5,0-5,4v6l3-2l2,3l2-3l3,2v-6C150.25,118.15,145.25,118.15,145.25,118.15"/>
	<path fill="#4D5152" d="M156.26,128.15c1.721,0,3.081,0.783,3.779,1.289c-0.421,0.803-1.366,2.186-3.096,2.762
		c-0.305,0.102-0.627,0.152-0.961,0.152c-1.313,0-2.645-0.797-3.439-1.412C153.189,129.939,154.581,128.15,156.26,128.15
		 M156.26,127.15c-3,0-5,4-5,4c0.196,0.195,2.319,2.203,4.725,2.203c0.421,0,0.849-0.061,1.275-0.203c3-1,4-4,4-4
		S159.26,127.15,156.26,127.15"/>
	<path fill="#75EA9C" d="M140.26,133.15c0,0,1,3,4,4c0.43,0.141,0.859,0.199,1.279,0.199c2.4,0,4.521-2,4.721-2.199c0,0-2-4-5-4
		S140.26,133.15,140.26,133.15"/>
	<path fill="#4D5152" d="M145.26,132.15c1.68,0,3.07,1.789,3.717,2.791c-0.795,0.615-2.127,1.412-3.439,1.412
		c-0.334,0-0.656-0.051-0.961-0.152c-1.729-0.576-2.674-1.959-3.096-2.762C142.179,132.934,143.539,132.15,145.26,132.15
		 M145.26,131.15c-3,0-5,2-5,2s1,3,4,4c0.428,0.143,0.855,0.203,1.275,0.203c2.406,0,4.529-2.008,4.725-2.203
		C150.26,135.15,148.26,131.15,145.26,131.15"/>
</g>
<g id="bio_x5F_energy">
	<path fill="#75EA9C" d="M88.916,125.9c0,3.31-3.541,4.539-5.041,4.91V127.6l2.85-2.85c0.201-0.189,0.201-0.51,0-0.7
		c-0.189-0.2-0.51-0.2-0.699,0l-2.15,2.149v-3.6l1.85-1.85c0.201-0.189,0.201-0.51,0-0.7c-0.189-0.2-0.51-0.2-0.699,0l-1.15,1.149
		V118.4c0-0.28-0.221-0.5-0.5-0.5s-0.5,0.22-0.5,0.5v4.799l-1.15-1.149c-0.189-0.2-0.51-0.2-0.699,0c-0.199,0.19-0.199,0.511,0,0.7
		l1.85,1.85v3.6l-2.15-2.149c-0.189-0.2-0.51-0.2-0.699,0c-0.199,0.19-0.199,0.511,0,0.7l2.85,2.85v1.211
		c-1.5-0.371-5.039-1.601-5.039-4.91c0-3.631,3.85-9.771,5.539-12.301C85.064,116.13,88.916,122.27,88.916,125.9"/>
	<path fill="#FFD878" d="M106.875,121.34c0,1.54-0.41,2.99-1.129,4.24c-0.75,1.279-2.18,3.47-3.43,5.32
		c-0.15,0.23-0.301,0.449-0.441,0.67v4.279c0,1.551-2.289,3.051-3.5,3.051c-1.209,0-3.5-1.5-3.5-3.051v-4.279
		c-0.139-0.221-0.289-0.439-0.439-0.67c-1.24-1.851-2.68-4.031-3.43-5.32c-0.721-1.25-1.131-2.69-1.131-4.24
		c0-4.689,3.811-8.5,8.5-8.5C103.066,112.84,106.875,116.65,106.875,121.34"/>
	<path fill="#AAAAAA" d="M102.316,130.9c-0.15,0.23-0.301,0.449-0.441,0.67v4.279c0,1.551-2.289,3.051-3.5,3.051
		c-1.209,0-3.5-1.5-3.5-3.051v-4.279c-0.139-0.221-0.289-0.439-0.439-0.67H102.316z"/>
	<path fill="#4D5152" d="M98.375,112.84c-4.689,0-8.5,3.811-8.5,8.5c0,1.551,0.41,2.99,1.131,4.24c0.84,1.449,2.549,4.02,3.869,5.99
		v4.279c0,1.361,1.75,2.67,3,2.98v0.57c0,1.41-1.25,1.5-1.5,1.5h-8c-4.42,0-4.5-3.359-4.5-3.5v-5.6c1.529-0.361,6-1.75,6-5.9
		c0-5-6.5-14-6.5-14s-6.5,9-6.5,14c0,4.15,4.471,5.539,6,5.9v5.6c0,0.039,0.061,4.5,5.5,4.5h8c0.861,0,2.5-0.52,2.5-2.5v-0.57
		c1.25-0.311,3-1.619,3-2.98v-4.279c1.33-1.971,3.031-4.551,3.871-5.99c0.719-1.25,1.129-2.7,1.129-4.24
		C106.875,116.65,103.066,112.84,98.375,112.84 M83.375,117.9c-0.279,0-0.5,0.22-0.5,0.5v4.799l-1.15-1.149
		c-0.189-0.2-0.51-0.2-0.699,0c-0.199,0.19-0.199,0.511,0,0.7l1.85,1.85v3.6l-2.15-2.149c-0.189-0.2-0.51-0.2-0.699,0
		c-0.199,0.19-0.199,0.511,0,0.7l2.85,2.85v1.211c-1.5-0.371-5.039-1.601-5.039-4.91c0-3.631,3.85-9.771,5.539-12.301
		c1.689,2.53,5.541,8.67,5.541,12.301c0,3.31-3.541,4.539-5.041,4.91V127.6l2.85-2.85c0.201-0.189,0.201-0.51,0-0.7
		c-0.189-0.2-0.51-0.2-0.699,0l-2.15,2.149v-3.6l1.85-1.85c0.201-0.189,0.201-0.51,0-0.7c-0.189-0.2-0.51-0.2-0.699,0l-1.15,1.149
		V118.4C83.875,118.12,83.654,117.9,83.375,117.9 M100.875,135.85c0,1.051-1.67,2.051-2.5,2.051s-2.5-1-2.5-2.051V131.9h5V135.85z
		 M104.875,125.13c-0.82,1.42-2.609,4.04-3.809,5.771h-5.381c-1.199-1.73-2.99-4.351-3.811-5.771c-0.641-1.101-1-2.38-1-3.739
		c0-4.15,3.361-7.511,7.5-7.511c4.141,0,7.5,3.36,7.5,7.511C105.875,122.75,105.516,124.029,104.875,125.13"/>
</g>
<g id="glass_x5F_recycling">
	<path fill="#75EA9C" d="M49,120.9c0,0,0,17-3,17H31c-3,0-3-17-3-17H49z"/>
	<path fill="#A4FFBE" d="M49,115.9v5H28v-5c0,0,0-4,4-4h13C45,111.9,49,111.9,49,115.9"/>
	<path fill="#75EA9C" d="M32,111.9v5c0,0,0,2,2,2h9c0,0,2,0,2-2v-5H32z"/>
	<path fill="#4D5152" d="M44.996,112.9c0.506,0.006,3.004,0.18,3.004,3v4H29v-3.994c0.006-0.502,0.177-3.006,3-3.006H44.996
		 M45,111.9H32c-4,0-4,4-4,4v4v1h21v-5C49,111.9,45,111.9,45,111.9"/>
	<path fill="#4D5152" d="M44,112.9v4c0,0.805-0.55,0.987-1,1h-9c-0.805,0-0.988-0.551-1-1v-4H44 M45,111.9H32v5c0,0,0,2,2,2h9
		c0,0,2,0,2-2V111.9z"/>
	<path fill="#4D5152" d="M48,120.9c0,7.826-0.957,15.25-2.056,16H31.057c-1.117-0.756-2.056-8.035-2.057-16H48 M49,119.9H28v1
		c0,0,0,17,3,17h15c3,0,3-17,3-17V119.9z"/>
	<path fill="#ACF0F2" d="M32,129.9v10c0,0,0,2-2,2h-8c-2,0-2-2-2-2v-10c0,0,0-2,2-3c1.359-0.681,1.8-2.75,1.939-4H23v-4h6v4h-0.939
		c0.14,1.25,0.58,3.319,1.939,4C32,127.9,32,129.9,32,129.9"/>
	<rect x="23" y="118.9" fill="#AAAAAA" width="6" height="4"/>
	<g opacity="0.6">
		<g>
			<defs>
				<rect id="SVGID_1_" x="20" y="130.9" width="12" height="9"/>
			</defs>
			<clipPath id="SVGID_2_">
				<use xlink:href="#SVGID_1_"  overflow="visible"/>
			</clipPath>
			<g clip-path="url(#SVGID_2_)">
				<defs>
					<rect id="SVGID_3_" x="20" y="130.9" width="12" height="9"/>
				</defs>
				<clipPath id="SVGID_4_">
					<use xlink:href="#SVGID_3_"  overflow="visible"/>
				</clipPath>
				<polygon clip-path="url(#SVGID_4_)" fill="#FFFFFF" points="20,135.9 20,139.9 32,134.9 32,130.9 				"/>
			</g>
		</g>
	</g>
	<path fill="#4D5152" d="M30,126.9c-1.359-0.68-1.8-2.75-1.939-4H29v-4h-6v4h0.939c-0.14,1.25-0.58,3.32-1.939,4c-2,1-2,3-2,3v10
		c0,0,0,2,2,2h8c2,0,2-2,2-2v-10C32,129.9,32,127.9,30,126.9 M24,119.9h4v2h-4V119.9z M31,139.891c-0.01,0.459-0.189,1.01-1,1.01h-8
		c-0.811,0-0.99-0.551-1-1v-10c0-0.01,0.02-1.391,1.45-2.111c1.829-0.909,2.35-3.449,2.489-4.889h2.121
		c0.141,1.439,0.649,3.979,2.489,4.889c1.4,0.701,1.45,2.061,1.45,2.111V139.891z"/>
	<path fill="#4D5152" d="M22.5,134.9c-0.275,0-0.5-0.225-0.5-0.5v-4c0-0.275,0.225-0.5,0.5-0.5s0.5,0.225,0.5,0.5v4
		C23,134.676,22.775,134.9,22.5,134.9"/>
	<path fill="#4D5152" d="M22.5,138.9c-0.275,0-0.5-0.225-0.5-0.5v-2c0-0.275,0.225-0.5,0.5-0.5s0.5,0.225,0.5,0.5v2
		C23,138.676,22.775,138.9,22.5,138.9"/>
</g>
</svg>
