<?xml version="1.0" encoding="utf-8"?>
<!-- Generator: Adobe Illustrator 16.0.0, SVG Export Plug-In . SVG Version: 6.00 Build 0)  -->
<!DOCTYPE svg PUBLIC "-//W3C//DTD SVG 1.1//EN" "http://www.w3.org/Graphics/SVG/1.1/DTD/svg11.dtd">
<svg version="1.1" id="Capa_1" xmlns="http://www.w3.org/2000/svg" xmlns:xlink="http://www.w3.org/1999/xlink" x="0px" y="0px"
	 width="32px" height="32px" viewBox="0 0 32 32" enable-background="new 0 0 32 32" xml:space="preserve">
<circle fill="#75EA9C" cx="16" cy="16" r="14"/>
<path fill="#AAAAAA" d="M17.768,10.489L9.99,18.269l-2.829-2.829c0,0-3.536-3.536,0.354-7.425s6.718-1.061,6.718-1.061
	L17.768,10.489z"/>
<path fill="#AAAAAA" d="M22.01,14.731l-7.778,7.779l2.829,2.828c0,0,3.535,3.535,7.425-0.354s1.061-6.718,1.061-6.718L22.01,14.731z
	"/>
<path fill="#4D5152" d="M24.84,24.63c3.36-3.71,0.71-6.36,0.71-6.36l-3.54-3.54l-7.78,7.78l2.83,2.83c0,0,1.471,1.47,3.561,1.47
	c1.05,0,2.25-0.369,3.5-1.479l4.84,4.84l0.71-0.71L24.84,24.63z M16.36,23.22H16.35l-0.7-0.71l6.36-6.359l0.71,0.71L16.36,23.22z
	 M23.42,24.63c-0.91,0.78-1.85,1.18-2.8,1.18c-1.63,0-2.84-1.17-2.851-1.18l-0.71-0.71l6.36-6.36l1.41,1.41
	c0.2,0.21,1.86,2.101-0.7,4.95L23.42,24.63z"/>
<path fill="#4D5152" d="M8.37,8.58L8.09,8.86c0.04-0.05,0.08-0.09,0.13-0.14C8.27,8.67,8.32,8.62,8.37,8.58z"/>
<path fill="#4D5152" d="M16.36,11.91l1.409-1.42l-3.54-3.54c0,0-0.99-0.99-2.61-0.99c-1.02,0-2.3,0.4-3.74,1.71L3.04,2.83L2.33,3.54
	l4.84,4.84c-3.32,3.74-0.01,7.06-0.01,7.06l2.83,2.83l1.42-1.409l2.82,2.819l0.71-0.71l-2.83-2.819l3.54-3.541l2.82,2.83l0.71-0.71
	L16.36,11.91z M7.87,14.73c-0.12-0.11-2.71-2.78,0.22-5.87c0.04-0.05,0.08-0.09,0.13-0.14c0.05-0.05,0.1-0.1,0.15-0.14
	c1.12-1.08,2.21-1.62,3.25-1.62c1.16,0,1.88,0.68,1.91,0.7l1.41,1.42l-6.36,6.36L7.87,14.73z M9.99,16.85l-0.7-0.699l6.36-6.371
	l0.7,0.71L9.99,16.85z"/>
</svg>
